<?xml version="1.0" encoding="utf-8"?>
<!-- Generator: Adobe Illustrator 23.0.0, SVG Export Plug-In . SVG Version: 6.00 Build 0)  -->
<svg version="1.1" id="Layer_1" xmlns="http://www.w3.org/2000/svg" xmlns:xlink="http://www.w3.org/1999/xlink" x="0px" y="0px"
	 viewBox="0 0 21 16" style="enable-background:new 0 0 21 16;" xml:space="preserve">
<style type="text/css">
	.st0{fill:#FFFFFF;}
	.st1{fill:#042649;}
	.st2{fill:none;stroke:#042649;stroke-miterlimit:10;}
	.st3{fill:#666666;}
</style>
<g>
	<path class="st3" d="M14.72,7.67H4c-0.55,0-1,0.45-1,1v3.94h12.72V8.67C15.72,8.12,15.27,7.67,14.72,7.67z M6.43,11.42
		c-0.27,0-0.52-0.11-0.7-0.3c-0.18,0.18-0.42,0.3-0.7,0.3c-0.54,0-0.97-0.44-0.97-0.97s0.44-0.97,0.97-0.97
		c0.27,0,0.52,0.11,0.7,0.3c0.18-0.18,0.42-0.3,0.7-0.3c0.54,0,0.97,0.44,0.97,0.97S6.97,11.42,6.43,11.42z"/>
	<path class="st3" d="M3,14.34h12.72v0.45c0,0.55-0.45,1-1,1H4c-0.55,0-1-0.45-1-1V14.34z"/>
	<path class="st3" d="M17.68,7.73L9.79,0.47c-0.4-0.37-1.03-0.34-1.4,0.06L4.23,5.05c-0.37,0.4-0.34,1.03,0.06,1.4l0.58,0.53h1.05
		L4.61,5.77l0.83-0.91l2.3,2.11h2.04l-3.4-3.13L9.1,0.88l8.26,7.59l-0.95,1.04v1.05l1.33-1.44C18.11,8.72,18.08,8.1,17.68,7.73z"/>
</g>
</svg>
