<?xml version="1.0" encoding="utf-8"?>
<!-- Generator: Adobe Illustrator 23.0.0, SVG Export Plug-In . SVG Version: 6.00 Build 0)  -->
<svg version="1.1" id="Layer_1" xmlns="http://www.w3.org/2000/svg" xmlns:xlink="http://www.w3.org/1999/xlink" x="0px" y="0px"
	 viewBox="0 0 21 16" style="enable-background:new 0 0 21 16;" xml:space="preserve">
<style type="text/css">
	.st0{fill:#FFFFFF;}
	.st1{fill:#042649;}
	.st2{fill:none;stroke:#042649;stroke-miterlimit:10;}
	.st3{fill:#666666;}
</style>
<g>
	<path class="st3" d="M11.67,7.77c-0.01-0.01-0.03-0.03-0.04-0.04h0.12c0,0.04,0,0.07,0,0.11C11.71,7.81,11.69,7.79,11.67,7.77z"/>
	<path class="st3" d="M12.39,7.78c-0.02,0.02-0.04,0.03-0.07,0.06V7.73h0.12C12.42,7.75,12.4,7.76,12.39,7.78z"/>
	<circle class="st3" cx="15.96" cy="2.65" r="1.43"/>
	<circle class="st3" cx="8.16" cy="2.65" r="1.43"/>
	<g>
		<path class="st3" d="M15.88,7.73c-0.89-1.14-2.28-1.87-3.84-1.87S9.08,6.59,8.19,7.73H5.51c-2.13,0-3.86,1.73-3.86,3.86v1.88h3.27
			v-1.88c0-0.32,0.26-0.59,0.59-0.59h1.65c0.14,2.57,2.27,4.61,4.87,4.61s4.73-2.04,4.87-4.61h2.45V7.73H15.88z M12.69,10.78
			c0.13,0.07,0.26,0.15,0.39,0.22c0.27,0.16,0.55,0.32,0.82,0.48c0.05,0.03,0.1,0.04,0.16,0.02c0.37-0.1,0.74-0.2,1.11-0.3
			c0.18-0.05,0.34,0.03,0.38,0.19c0.05,0.17-0.05,0.32-0.23,0.37c-0.21,0.06-0.41,0.11-0.64,0.17c0.08,0.05,0.14,0.08,0.2,0.12
			c0.09,0.05,0.18,0.1,0.27,0.15c0.16,0.1,0.22,0.27,0.13,0.41c-0.09,0.14-0.26,0.18-0.42,0.09c-0.12-0.07-0.24-0.14-0.37-0.21
			c-0.03-0.02-0.06-0.03-0.1-0.06c0.05,0.18,0.09,0.35,0.14,0.51c0.01,0.05,0.03,0.1,0.04,0.15c0.04,0.16-0.05,0.32-0.21,0.36
			c-0.15,0.04-0.3-0.05-0.35-0.21c-0.1-0.38-0.21-0.76-0.31-1.14c-0.02-0.06-0.04-0.1-0.1-0.13c-0.42-0.24-0.85-0.49-1.28-0.74
			c0,0.03-0.01,0.05-0.01,0.06c0,0.48,0,0.96,0,1.44c0,0.04,0.02,0.09,0.05,0.11c0.27,0.28,0.55,0.55,0.83,0.83
			c0.17,0.17,0.11,0.44-0.12,0.5c-0.11,0.03-0.21-0.01-0.29-0.09c-0.13-0.13-0.26-0.26-0.4-0.4c-0.02-0.02-0.04-0.04-0.08-0.07v0.53
			c0,0.19-0.12,0.32-0.29,0.32c-0.17,0-0.29-0.13-0.29-0.32c0-0.17,0-0.33,0-0.5c0-0.01,0-0.01,0-0.03
			c-0.02,0.02-0.04,0.03-0.05,0.04c-0.14,0.14-0.27,0.27-0.41,0.41c-0.14,0.13-0.31,0.14-0.43,0.02c-0.12-0.12-0.11-0.29,0.02-0.43
			c0.27-0.27,0.55-0.55,0.82-0.82c0.03-0.03,0.05-0.07,0.05-0.11c0-0.49,0-0.97,0-1.46c0-0.01,0-0.02,0-0.04
			c-0.03,0.01-0.05,0.02-0.07,0.04c-0.4,0.23-0.8,0.46-1.2,0.69c-0.06,0.03-0.09,0.07-0.11,0.14c-0.09,0.37-0.19,0.73-0.29,1.1
			c-0.04,0.15-0.13,0.23-0.25,0.25C9.6,13.48,9.45,13.3,9.5,13.09c0.03-0.11,0.06-0.21,0.09-0.32c0.03-0.1,0.06-0.21,0.09-0.32
			c-0.03,0.01-0.05,0.02-0.07,0.03c-0.14,0.08-0.27,0.16-0.41,0.24c-0.15,0.09-0.32,0.04-0.41-0.1c-0.08-0.15-0.03-0.31,0.12-0.4
			c0.15-0.09,0.3-0.17,0.45-0.26c0,0,0.01-0.01,0.01-0.02c-0.21-0.06-0.42-0.11-0.64-0.17c-0.16-0.04-0.25-0.18-0.23-0.32
			c0.03-0.18,0.19-0.28,0.37-0.23c0.38,0.1,0.76,0.2,1.14,0.3c0.04,0.01,0.09,0.01,0.12-0.01c0.28-0.16,0.57-0.32,0.85-0.49
			c0.14-0.08,0.28-0.16,0.41-0.24c0.01-0.01,0.02-0.02,0.04-0.03c-0.03-0.02-0.05-0.03-0.07-0.05c-0.4-0.23-0.8-0.47-1.21-0.69
			c-0.04-0.02-0.1-0.03-0.15-0.02c-0.37,0.1-0.75,0.2-1.12,0.3c-0.17,0.05-0.33-0.03-0.37-0.19C8.47,9.92,8.56,9.77,8.74,9.72
			c0.19-0.05,0.38-0.1,0.56-0.15c0.02-0.01,0.04-0.01,0.08-0.03C9.21,9.44,9.06,9.35,8.9,9.26C8.82,9.22,8.77,9.15,8.75,9.05
			C8.74,8.94,8.77,8.84,8.87,8.77c0.1-0.07,0.2-0.07,0.31-0.01c0.14,0.08,0.28,0.16,0.41,0.24c0.02,0.01,0.05,0.02,0.08,0.04
			C9.62,8.82,9.56,8.61,9.51,8.41C9.46,8.22,9.54,8.07,9.7,8.02c0.16-0.04,0.31,0.05,0.36,0.24c0.1,0.37,0.2,0.74,0.29,1.1
			c0.02,0.06,0.05,0.1,0.1,0.14c0.4,0.23,0.8,0.46,1.19,0.69c0.02,0.01,0.05,0.03,0.09,0.05c0-0.03,0-0.05,0-0.07
			c0-0.47,0-0.94,0-1.41c0-0.05-0.02-0.11-0.06-0.14c-0.27-0.28-0.55-0.55-0.83-0.83c-0.02-0.02-0.03-0.03-0.04-0.05
			c-0.06-0.09-0.07-0.2-0.03-0.29c0.05-0.11,0.16-0.18,0.28-0.16c0.07,0.01,0.15,0.05,0.2,0.1c0.12,0.11,0.24,0.23,0.36,0.35h0.12
			c0-0.16,0-0.31,0-0.46c0-0.16,0.13-0.28,0.28-0.28c0.16,0,0.29,0.12,0.29,0.28c0,0.11,0,0.21,0,0.32v0.15h0.12
			c0.11-0.11,0.23-0.23,0.34-0.34c0.14-0.14,0.31-0.15,0.44-0.03c0.1,0.1,0.11,0.25,0.03,0.37c-0.01,0.02-0.03,0.04-0.05,0.07
			c-0.27,0.27-0.54,0.54-0.81,0.81c-0.03,0.03-0.06,0.09-0.06,0.14c0,0.46,0,0.92,0,1.38v0.11c0.04-0.02,0.07-0.04,0.1-0.06
			c0.39-0.23,0.78-0.45,1.18-0.68c0.06-0.03,0.09-0.07,0.1-0.13c0.1-0.38,0.2-0.76,0.3-1.14c0.04-0.13,0.14-0.21,0.27-0.21
			c0.13,0,0.25,0.07,0.28,0.2c0.01,0.06,0.01,0.13,0,0.18c-0.05,0.21-0.11,0.42-0.17,0.64c0.17-0.1,0.32-0.19,0.47-0.27
			c0.07-0.03,0.16-0.05,0.23-0.04c0.12,0.02,0.19,0.1,0.22,0.22c0.03,0.12-0.03,0.24-0.14,0.31c-0.16,0.09-0.32,0.18-0.49,0.29
			c0.22,0.06,0.43,0.11,0.64,0.17c0.16,0.04,0.26,0.17,0.24,0.32c-0.03,0.18-0.19,0.29-0.37,0.24c-0.38-0.1-0.76-0.2-1.14-0.3
			c-0.04-0.01-0.09-0.01-0.13,0.01c-0.42,0.24-0.84,0.48-1.26,0.73c-0.01,0.01-0.02,0.01-0.04,0.03
			C12.65,10.75,12.67,10.77,12.69,10.78z"/>
		<path class="st3" d="M11.74,7.73c0,0.04,0,0.07,0,0.11c-0.04-0.03-0.06-0.05-0.08-0.07c-0.01-0.01-0.03-0.03-0.04-0.04H11.74z"/>
		<path class="st3" d="M12.44,7.73c-0.02,0.02-0.03,0.03-0.05,0.05c-0.02,0.02-0.04,0.03-0.07,0.06V7.73H12.44z"/>
	</g>
	<path class="st3" d="M10.19,4.25v2.26h3.69V4.25H10.19z M13.29,5.32h-2.52V4.67h2.52V5.32z"/>
	<rect x="11.17" y="0.38" class="st3" width="1.73" height="3.99"/>
	
		<rect x="11.2" y="-1.28" transform="matrix(-1.836970e-16 1 -1 -1.836970e-16 14.6774 -9.4461)" class="st3" width="1.73" height="7.79"/>
</g>
</svg>
