<?xml version="1.0" encoding="utf-8"?>
<!-- Generator: Adobe Illustrator 23.0.0, SVG Export Plug-In . SVG Version: 6.00 Build 0)  -->
<svg version="1.1" id="Layer_1" xmlns="http://www.w3.org/2000/svg" xmlns:xlink="http://www.w3.org/1999/xlink" x="0px" y="0px"
	 viewBox="0 0 21 16" style="enable-background:new 0 0 21 16;" xml:space="preserve">
<style type="text/css">
	.st0{fill:#FFFFFF;}
	.st1{fill:#042649;}
	.st2{fill:none;stroke:#042649;stroke-miterlimit:10;}
	.st3{fill:#666666;}
</style>
<g>
	<path class="st3" d="M15.88,15.7c0-0.28,0.01-0.55,0-0.83c-0.05-2.1-0.1-4.2-0.15-6.3c-0.03-1.1-0.05-2.19-0.08-3.29
		c-0.05-1.6-1.36-2.98-2.95-3.11C11.09,2.04,9.71,2.97,9.24,4.5C9.23,4.52,9.22,4.55,9.21,4.6C8.59,4.46,7.97,4.44,7.33,4.57
		c0.01-0.06,0.01-0.1,0.01-0.14c0.43-2.17,2.24-3.84,4.42-4.09c2.69-0.3,5.1,1.46,5.63,4.12c0.06,0.3,0.08,0.6,0.09,0.91
		c0.07,2.5,0.13,5,0.19,7.5c0.02,0.89,0.05,1.78,0.07,2.67c0,0.05,0,0.1,0,0.17C17.13,15.7,16.52,15.7,15.88,15.7z"/>
	<path class="st3" d="M12.12,7.68c-2.62,0-5.23,0-7.87,0c0.21-0.62,0.54-1.16,1-1.61c0.71-0.71,1.57-1.12,2.57-1.2
		C10.12,4.69,11.68,6.25,12.12,7.68z"/>
	<path class="st3" d="M8.2,8.98c-1.31,0-2.63,0-3.94,0c-0.36,0-0.59-0.31-0.47-0.62c0.06-0.17,0.19-0.26,0.37-0.29
		C4.21,8.06,4.25,8.06,4.3,8.06c2.59,0,5.19,0,7.78,0c0.3,0,0.49,0.14,0.53,0.39c0.04,0.27-0.15,0.52-0.43,0.53
		c-0.12,0.01-0.24,0-0.37,0C10.61,8.98,9.4,8.98,8.2,8.98z"/>
	<path class="st3" d="M12.73,15.39c-0.08,0-0.16-0.03-0.23-0.1c-0.13-0.12-0.17-0.25-0.11-0.43c0.06-0.19,0.18-0.34,0.35-0.49
		c0.17,0.15,0.27,0.29,0.33,0.45c0.05,0.12,0.05,0.25,0.01,0.35c-0.03,0.06-0.08,0.14-0.19,0.19
		C12.85,15.38,12.79,15.39,12.73,15.39z"/>
	<path class="st3" d="M4.74,13.14c-0.08,0-0.15-0.03-0.22-0.09c-0.13-0.11-0.17-0.23-0.13-0.4c0.05-0.21,0.18-0.37,0.36-0.54
		c0.2,0.18,0.33,0.35,0.38,0.59c0,0.01,0,0.01,0,0.02c0,0.01,0,0.02,0,0.04c-0.01,0.17-0.08,0.27-0.22,0.34
		C4.85,13.13,4.79,13.14,4.74,13.14z"/>
	<path class="st3" d="M5.93,15.39c-0.04,0-0.09-0.01-0.15-0.02c-0.11-0.04-0.17-0.11-0.2-0.17c-0.05-0.1-0.06-0.22-0.02-0.34
		c0.05-0.15,0.18-0.34,0.35-0.49c0.16,0.15,0.28,0.29,0.34,0.47c0.08,0.23,0,0.36-0.08,0.44C6.1,15.35,6.02,15.39,5.93,15.39z"/>
	<path class="st3" d="M5.87,10.89c-0.08,0-0.15-0.02-0.21-0.07c-0.13-0.09-0.19-0.26-0.15-0.42c0.05-0.21,0.18-0.37,0.36-0.54
		c0.2,0.18,0.32,0.34,0.37,0.55c0.04,0.16-0.02,0.32-0.16,0.41C6.02,10.87,5.94,10.89,5.87,10.89z"/>
	<path class="st3" d="M8.19,15.38c-0.08,0-0.15-0.02-0.21-0.07c-0.14-0.1-0.2-0.28-0.14-0.45c0.06-0.19,0.19-0.35,0.36-0.5
		c0.14,0.13,0.24,0.25,0.31,0.38c0.11,0.21,0.08,0.43-0.07,0.56C8.36,15.36,8.28,15.38,8.19,15.38z"/>
	<path class="st3" d="M3.63,15.39c-0.05,0-0.1-0.01-0.15-0.03c-0.16-0.07-0.26-0.25-0.22-0.41c0.05-0.22,0.17-0.39,0.37-0.58
		c0.16,0.14,0.28,0.29,0.34,0.47c0.06,0.16,0.04,0.28-0.05,0.4C3.86,15.33,3.75,15.39,3.63,15.39z"/>
	<path class="st3" d="M10.45,15.39c-0.08,0-0.16-0.03-0.23-0.1c-0.13-0.12-0.16-0.25-0.11-0.42c0.06-0.19,0.18-0.35,0.35-0.5
		c0.16,0.15,0.28,0.29,0.35,0.47c0.08,0.21,0,0.43-0.18,0.51C10.57,15.37,10.51,15.39,10.45,15.39z"/>
	<path class="st3" d="M8.15,10.89c-0.17,0-0.32-0.11-0.36-0.28c-0.01-0.02-0.01-0.05-0.01-0.08c0-0.01,0-0.01,0-0.01
		c0.01-0.16,0.06-0.29,0.18-0.43c0.06-0.07,0.13-0.14,0.2-0.21c0.19,0.17,0.3,0.32,0.35,0.5c0.03,0.11,0.02,0.22-0.03,0.32
		c-0.05,0.09-0.13,0.15-0.22,0.18C8.22,10.89,8.19,10.89,8.15,10.89z"/>
	<path class="st3" d="M7.02,13.14c-0.08,0-0.15-0.03-0.23-0.09c-0.13-0.1-0.17-0.22-0.13-0.39c0.05-0.21,0.18-0.38,0.36-0.54
		c0.22,0.19,0.33,0.37,0.37,0.57c0,0,0,0.02,0,0.04c0,0.01,0,0.02,0,0.03c-0.01,0.23-0.12,0.3-0.22,0.35
		C7.13,13.13,7.07,13.14,7.02,13.14z"/>
	<path class="st3" d="M9.3,13.14c-0.08,0-0.15-0.03-0.22-0.09c-0.13-0.1-0.17-0.22-0.13-0.39c0.05-0.21,0.18-0.38,0.37-0.55
		c0.19,0.17,0.3,0.33,0.36,0.51c0.01,0.02,0.01,0.06,0.02,0.1c0,0.01,0,0.01,0,0.02c-0.02,0.23-0.11,0.31-0.22,0.36
		C9.41,13.13,9.35,13.14,9.3,13.14z"/>
	<path class="st3" d="M11.58,13.14c-0.08,0-0.15-0.03-0.22-0.09c-0.13-0.11-0.17-0.23-0.13-0.4c0.05-0.21,0.18-0.37,0.36-0.54
		c0.2,0.18,0.33,0.35,0.38,0.59c0,0.01,0,0.01,0,0.02c0,0.01,0,0.02,0,0.04c-0.01,0.17-0.08,0.27-0.22,0.34
		C11.69,13.13,11.63,13.14,11.58,13.14z"/>
	<path class="st3" d="M10.43,10.89c-0.12,0-0.23-0.05-0.3-0.15c-0.04-0.06-0.11-0.18-0.06-0.34c0.05-0.2,0.18-0.36,0.36-0.53
		c0.17,0.15,0.29,0.3,0.35,0.49c0.04,0.12,0.03,0.24-0.03,0.34c-0.05,0.09-0.13,0.15-0.23,0.17C10.49,10.89,10.46,10.89,10.43,10.89
		z"/>
</g>
</svg>
