<?xml version="1.0" encoding="utf-8"?>
<!-- Generator: Adobe Illustrator 23.0.0, SVG Export Plug-In . SVG Version: 6.00 Build 0)  -->
<svg version="1.1" id="Layer_1" xmlns="http://www.w3.org/2000/svg" xmlns:xlink="http://www.w3.org/1999/xlink" x="0px" y="0px"
	 viewBox="0 0 21 16" style="enable-background:new 0 0 21 16;" xml:space="preserve">
<style type="text/css">
	.st0{fill:#FFFFFF;}
	.st1{fill:#042649;}
	.st2{fill:none;stroke:#042649;stroke-miterlimit:10;}
	.st3{fill:#666666;}
</style>
<g>
	<path class="st3" d="M17.75,13.67c0,0.62,0,1.25,0,1.88c-4.12,0-8.23,0-12.35,0c-0.32-0.17-0.45-0.43-0.41-0.8
		c0.02-0.22,0-0.45,0-0.67c0-0.7,0.14-0.84,0.84-0.84c2.28,0,4.56,0,6.84,0c0.14,0,0.28,0,0.42,0c0-2.74,0-5.43,0-8.13
		c-1.36,0-2.71,0-4.08,0c0,0.58,0,1.13,0,1.69c-0.39,0-0.75,0-1.14,0c0-0.58,0-1.13,0-1.72c-0.23,0-0.43,0-0.63,0
		c-0.93-0.02-1.75-0.59-2.1-1.46C4.81,2.78,5.02,1.79,5.66,1.14c0.38-0.38,0.85-0.55,1.35-0.69c2.71,0,5.41,0,8.12,0
		c0.03,0.02,0.05,0.04,0.09,0.05c0.96,0.18,1.6,0.74,1.85,1.68c0.25,0.95-0.04,1.76-0.78,2.41c-0.08,0.07-0.13,0.25-0.11,0.36
		c0.38,2.24,0.78,4.49,1.18,6.73C17.48,12.34,17.62,13.01,17.75,13.67z M16.08,11.78c0-0.52-0.41-0.94-0.92-0.94
		c-0.53-0.01-0.96,0.42-0.96,0.94c0,0.51,0.42,0.94,0.93,0.95C15.64,12.74,16.08,12.3,16.08,11.78z"/>
	<path class="st3" d="M5.52,8.09c0.2-0.6,0.28-0.65,0.92-0.65c1.37,0,2.75,0,4.12,0c0.61,0,0.8,0.19,0.78,0.81
		c-0.03,1.07-0.09,2.14-0.39,3.18c-0.03,0.11-0.07,0.21-0.11,0.32c-0.32,0.84-0.4,0.9-1.28,0.9c-0.83,0-1.66-0.02-2.48,0.01
		c-0.41,0.01-0.71-0.12-0.81-0.49c-0.17-0.67-0.6-0.73-1.18-0.71c-1.07,0.04-1.83-0.7-1.84-1.7c-0.01-1.11,0.96-1.9,2.11-1.7
		C5.42,8.06,5.47,8.07,5.52,8.09z M5.71,10.32c-0.05-0.38,0.01-0.73-0.3-0.99C5.19,9.15,4.95,9.1,4.7,9.23
		C4.46,9.35,4.35,9.57,4.4,9.84c0.05,0.28,0.23,0.46,0.52,0.48C5.17,10.34,5.42,10.32,5.71,10.32z"/>
</g>
</svg>
