<?xml version="1.0" encoding="utf-8"?>
<!-- Generator: Adobe Illustrator 23.0.0, SVG Export Plug-In . SVG Version: 6.00 Build 0)  -->
<svg version="1.1" id="Layer_1" xmlns="http://www.w3.org/2000/svg" xmlns:xlink="http://www.w3.org/1999/xlink" x="0px" y="0px"
	 viewBox="0 0 21 16" style="enable-background:new 0 0 21 16;" xml:space="preserve">
<style type="text/css">
	.st0{fill:#FFFFFF;}
	.st1{fill:#042649;}
	.st2{fill:none;stroke:#042649;stroke-miterlimit:10;}
	.st3{fill:#666666;}
</style>
<g>
	<path class="st3" d="M11.31,7.33c-0.49-0.75-0.99-1.51-1.48-2.26C9.8,5.03,9.78,4.99,9.74,4.93c0.06,0,0.1-0.01,0.15-0.01
		c1.39,0,2.78,0,4.17,0c0.11,0,0.15,0.03,0.19,0.13c0.38,0.98,0.65,1.98,0.74,3.03c0.04,0.53,0.03,1.07-0.11,1.59
		c-0.28,1.08-1,1.7-2.08,1.9c-0.3,0.05-0.6,0.07-0.91,0.11c0,0.03-0.01,0.07-0.01,0.11c0,0.91,0,1.82,0,2.73
		c0,0.1,0.04,0.16,0.12,0.21c0.5,0.3,1.05,0.46,1.63,0.53c0.16,0.02,0.32,0.03,0.49,0.03c0.2,0.01,0.2,0.01,0.17,0.23
		c-1.77,0-3.54,0-5.32,0c0-0.07,0-0.14,0-0.21c0.22-0.02,0.43-0.03,0.65-0.05c0.57-0.07,1.12-0.23,1.62-0.52
		c0.09-0.05,0.13-0.12,0.13-0.23c-0.01-0.9,0-1.8,0-2.7c0-0.04,0-0.08,0-0.13c-0.26-0.02-0.51-0.04-0.76-0.07
		c-0.76-0.11-1.41-0.42-1.86-1.07c-0.3-0.44-0.43-0.94-0.48-1.47c-0.1-1.14,0.14-2.23,0.48-3.31c0.08-0.24,0.17-0.48,0.26-0.72
		c0.03-0.08,0.07-0.11,0.15-0.11c0.09,0.01,0.19,0,0.28-0.01l0,0c0.41,0.63,0.83,1.27,1.24,1.9c0.11,0.17,0.22,0.33,0.34,0.52
		c-0.06,0-0.1,0.01-0.15,0.01c-0.63,0-1.25,0-1.88,0c-0.11,0-0.15,0.04-0.17,0.14C8.68,8.11,8.64,8.73,8.79,9.36
		c0.23,0.96,0.84,1.54,1.81,1.72c0.7,0.13,1.4,0.14,2.09-0.01c0.97-0.21,1.55-0.83,1.75-1.8c0.13-0.6,0.09-1.21-0.03-1.81
		c-0.02-0.11-0.08-0.11-0.17-0.11c-0.93,0-1.86,0-2.79,0C11.4,7.34,11.35,7.33,11.31,7.33L11.31,7.33z"/>
	<path class="st3" d="M9.42,4.91C9.28,4.7,9.13,4.48,8.98,4.25C8.77,4.41,8.71,4.63,8.69,4.88C8.41,4.77,8.15,4.77,7.9,4.93
		C7.66,5.08,7.55,5.32,7.53,5.6C6.86,5.48,6.48,5.71,6.39,6.3C6.35,6.24,6.33,6.2,6.3,6.16c-0.38-0.73-0.4-1.49-0.1-2.24
		C6.75,2.57,7.78,1.77,9.2,1.49c0.83-0.16,1.62-0.03,2.32,0.47c0.23,0.16,0.42,0.35,0.59,0.61c-0.3-0.07-0.56-0.05-0.78,0.13
		c-0.22,0.18-0.31,0.42-0.3,0.7c-0.61-0.27-1.15,0.09-1.21,0.71c-0.21-0.07-0.41-0.1-0.63,0.01C9.36,4.38,9.52,4.63,9.7,4.91
		C9.59,4.91,9.51,4.91,9.42,4.91C9.42,4.91,9.42,4.91,9.42,4.91z"/>
	<path class="st3" d="M11.3,7.33c0.2,0.31,0.4,0.61,0.6,0.93c-0.06,0.05-0.12,0.09-0.2,0.14c-0.23-0.34-0.45-0.68-0.68-1.04
		C11.13,7.35,11.22,7.34,11.3,7.33C11.31,7.33,11.3,7.33,11.3,7.33z"/>
</g>
</svg>
