<?xml version="1.0" encoding="utf-8"?>
<!-- Generator: Adobe Illustrator 16.0.0, SVG Export Plug-In . SVG Version: 6.00 Build 0)  -->
<!DOCTYPE svg PUBLIC "-//W3C//DTD SVG 1.1//EN" "http://www.w3.org/Graphics/SVG/1.1/DTD/svg11.dtd" [
	<!ENTITY ns_flows "http://ns.adobe.com/Flows/1.0/">
	<!ENTITY ns_extend "http://ns.adobe.com/Extensibility/1.0/">
	<!ENTITY ns_ai "http://ns.adobe.com/AdobeIllustrator/10.0/">
	<!ENTITY ns_graphs "http://ns.adobe.com/Graphs/1.0/">
]>
<svg version="1.1" id="Layer_1" xmlns:x="&ns_extend;" xmlns:i="&ns_ai;" xmlns:graph="&ns_graphs;"
	 xmlns="http://www.w3.org/2000/svg" xmlns:xlink="http://www.w3.org/1999/xlink" xmlns:a="http://ns.adobe.com/AdobeSVGViewerExtensions/3.0/"
	 x="0px" y="0px" width="32px" height="32px" viewBox="0 0 32 32" enable-background="new 0 0 32 32" xml:space="preserve">
<g>
	<g>
		<circle fill="none" stroke="#FFFFFF" stroke-width="0.25" stroke-miterlimit="10" cx="16" cy="16.001" r="15.569"/>
	</g>
	<g>
		<path fill-rule="evenodd" clip-rule="evenodd" fill="#FFFFFF" d="M15.993,24.982c-4.96-0.007-9.053-4.05-8.973-9.127
			c0.074-4.763,3.86-8.843,8.986-8.837c5.024,0.005,8.968,3.947,8.974,8.974C24.988,21.144,20.845,24.973,15.993,24.982z
			 M14.13,15.873c-0.018,0-0.036,0-0.053,0c0,0.696,0.012,1.394-0.003,2.09c-0.031,1.223-0.084,2.446-0.112,3.667
			c-0.007,0.29,0.018,0.588,0.079,0.872c0.084,0.398,0.471,0.699,0.77,0.646c0.326-0.059,0.653-0.473,0.644-0.838
			c-0.036-1.8-0.064-3.6-0.123-5.398c-0.025-0.767-0.126-1.53-0.157-2.294c-0.008-0.21,0.04-0.524,0.178-0.619
			c0.429-0.291,0.594-0.668,0.594-1.156c-0.005-0.82-0.007-1.64-0.014-2.46c-0.002-0.161-0.02-0.322-0.036-0.48
			c-0.021-0.182-0.069-0.362-0.303-0.335c-0.215,0.025-0.261,0.19-0.252,0.38c0.019,0.505,0.042,1.009,0.054,1.514
			c0.002,0.097-0.014,0.207-0.059,0.292c-0.037,0.067-0.153,0.161-0.192,0.144c-0.074-0.033-0.15-0.126-0.17-0.208
			c-0.027-0.125-0.009-0.262-0.009-0.393c0.003-0.487,0.005-0.972,0.007-1.458c0.002-0.161-0.04-0.273-0.229-0.286
			c-0.175-0.012-0.305,0.034-0.337,0.219c-0.022,0.13-0.033,0.261-0.033,0.392c-0.004,0.506,0.005,1.013-0.009,1.517
			c-0.001,0.079-0.087,0.155-0.134,0.232c-0.056-0.079-0.161-0.157-0.161-0.234c-0.002-0.455,0.026-0.908,0.033-1.363
			c0.005-0.19,0.002-0.385-0.03-0.571c-0.042-0.234-0.233-0.339-0.418-0.204c-0.122,0.092-0.229,0.29-0.235,0.442
			c-0.022,0.971-0.022,1.945-0.014,2.916c0.005,0.43,0.123,0.811,0.537,1.055c0.101,0.059,0.174,0.242,0.179,0.37
			C14.141,14.839,14.13,15.357,14.13,15.873z M18.56,18.271c-0.021,0-0.041,0-0.062,0c0-1.77,0-3.538,0-5.307
			c0-1.336,0-2.671-0.002-4.004c-0.001-0.347-0.066-0.379-0.372-0.208c-0.476,0.27-0.816,0.671-1.012,1.172
			c-0.713,1.813-0.542,3.574,0.342,5.289c0.081,0.159,0.149,0.356,0.14,0.528c-0.071,1.117-0.16,2.233-0.249,3.349
			c-0.046,0.582-0.113,1.163-0.163,1.745c-0.05,0.563-0.111,1.124-0.132,1.688c-0.013,0.357,0.241,0.632,0.587,0.714
			c0.256,0.062,0.628-0.099,0.754-0.384c0.096-0.214,0.156-0.462,0.158-0.697C18.566,20.859,18.56,19.563,18.56,18.271z"/>
	</g>
</g>
</svg>
