<?xml version="1.0" encoding="utf-8"?>
<!-- Generator: Adobe Illustrator 16.0.0, SVG Export Plug-In . SVG Version: 6.00 Build 0)  -->
<!DOCTYPE svg PUBLIC "-//W3C//DTD SVG 1.1//EN" "http://www.w3.org/Graphics/SVG/1.1/DTD/svg11.dtd" [
	<!ENTITY ns_flows "http://ns.adobe.com/Flows/1.0/">
	<!ENTITY ns_extend "http://ns.adobe.com/Extensibility/1.0/">
	<!ENTITY ns_ai "http://ns.adobe.com/AdobeIllustrator/10.0/">
	<!ENTITY ns_graphs "http://ns.adobe.com/Graphs/1.0/">
]>
<svg version="1.1" id="Layer_1" xmlns:x="&ns_extend;" xmlns:i="&ns_ai;" xmlns:graph="&ns_graphs;"
	 xmlns="http://www.w3.org/2000/svg" xmlns:xlink="http://www.w3.org/1999/xlink" xmlns:a="http://ns.adobe.com/AdobeSVGViewerExtensions/3.0/"
	 x="0px" y="0px" width="96.334px" height="37.018px" viewBox="0 0 96.334 37.018" enable-background="new 0 0 96.334 37.018"
	 xml:space="preserve">
<g>
	<path fill="#FFFFFD" d="M81.912,13.606H27.877v-3.468c0-4.26-3.777-7.715-8.436-7.715H14.42c-4.658,0-8.434,3.455-8.434,7.715
		v10.497c0,0.189,0.016,0.376,0.029,0.563c0,0.041-0.006,0.082-0.006,0.124v5.556c0,4.261,3.775,7.717,8.434,7.717h67.469
		c4.66,0,8.436-3.456,8.436-7.717v-5.556C90.348,17.063,86.572,13.606,81.912,13.606z"/>
	<g>
		<g>
			<g>
				<g>
					<g>
						<g>
							<path fill="#84B840" d="M36.578,24.327c-0.064-0.469-0.191-0.919-0.385-1.35c-0.207-0.456-0.482-0.866-0.809-1.242
								c-0.424-0.475-0.906-0.867-1.471-1.145c-0.619-0.305-1.275-0.446-1.836-0.438c-0.385,0.001-0.639,0.015-0.893,0.054
								c-0.43,0.068-0.842,0.183-1.238,0.366c-0.729,0.336-1.334,0.842-1.83,1.491c-0.633,0.825-0.93,1.777-0.975,2.825
								c-0.014,0.335,0.016,0.669,0.063,1.002c0.059,0.432,0.18,0.842,0.352,1.236c0.344,0.779,0.865,1.408,1.506,1.928
								c0.539,0.429,1.133,0.715,1.791,0.865c0.344,0.078,0.691,0.091,1.039,0.121c0.033,0.005,0.074-0.007,0.109-0.01
								c0.037-0.004,0.072-0.014,0.107-0.014c0.156,0.006,0.311-0.015,0.463-0.035c0.494-0.067,0.967-0.216,1.416-0.449
								c0.502-0.26,0.938-0.612,1.326-1.03c0.865-0.932,1.291-2.056,1.322-3.35C36.643,24.879,36.617,24.601,36.578,24.327z
								 M33.197,25.083c-0.002,0.605-0.262,1.051-0.771,1.323c-0.42,0.221-1.014,0.159-1.418-0.242
								c-0.5-0.499-0.553-1.293-0.248-1.826c0.205-0.362,0.502-0.607,0.9-0.67c0.611-0.096,1.08,0.174,1.367,0.691
								C33.152,24.581,33.207,24.825,33.197,25.083z"/>
						</g>
					</g>
					<g>
						<rect x="22.311" y="17.014" fill-rule="evenodd" clip-rule="evenodd" fill="#84B840" width="3.355" height="13.029"/>
					</g>
					<g>
						<path fill="#84B840" d="M20.287,21.31h-0.002c0-0.938,0-1.875,0-2.812l0,0v-1.49h-3.639v1.49l0,0c0,2.17,0,4.337,0,6.504
							c0,0.045,0,0.09,0,0.136c-0.006,0.201-0.027,0.398-0.09,0.589c-0.096,0.302-0.287,0.494-0.596,0.533
							c-0.385,0.046-0.711-0.101-0.855-0.529c-0.063-0.19-0.088-0.392-0.088-0.589c-0.004-2.264-0.004-4.527-0.004-6.793v-1.334
							c0-0.005,0-0.005,0-0.007h-3.654v1.832l0,0c0,2.081,0,4.164,0.004,6.245c0,0.168-0.006,0.337,0.012,0.505
							c0.025,0.273,0.047,0.548,0.09,0.823c0.076,0.474,0.199,0.93,0.391,1.367c0.393,0.901,1.018,1.559,1.893,1.938
							c0.557,0.243,1.143,0.337,1.74,0.359c0.209,0.009,0.42,0,0.625-0.02c0.344-0.028,0.684-0.077,1.014-0.172
							c0.947-0.269,1.725-0.805,2.305-1.638c0.576-0.823,0.838-1.763,0.85-2.773C20.303,24.085,20.287,22.697,20.287,21.31z"/>
					</g>
				</g>
				<g>
					<g>
						<path fill="#115E8F" d="M40.182,16.421h1.605v5.788h0.035c0.256-0.479,0.654-0.899,1.148-1.188
							c0.475-0.288,1.039-0.479,1.639-0.479c1.186,0,3.08,0.768,3.08,3.968v5.518h-1.602v-5.326c0-1.495-0.527-2.76-2.043-2.76
							c-1.035,0-1.855,0.768-2.15,1.687c-0.092,0.23-0.107,0.478-0.107,0.804v5.596h-1.605V16.421z"/>
					</g>
					<g>
						<path fill="#115E8F" d="M58.277,25.314c0,3.431-2.26,4.923-4.395,4.923c-2.385,0-4.223-1.839-4.223-4.771
							c0-3.104,1.928-4.925,4.369-4.925C56.564,20.542,58.277,22.478,58.277,25.314z M51.279,25.409c0,2.03,1.113,3.564,2.678,3.564
							c1.533,0,2.68-1.515,2.68-3.601c0-1.573-0.75-3.566-2.643-3.566S51.279,23.646,51.279,25.409z"/>
					</g>
					<g>
						<path fill="#115E8F" d="M62.229,18.087v2.665h2.299v1.285h-2.299v5.002c0,1.148,0.311,1.8,1.205,1.8
							c0.42,0,0.729-0.056,0.928-0.115l0.072,1.267c-0.311,0.132-0.799,0.229-1.422,0.229c-0.742,0-1.346-0.249-1.729-0.709
							c-0.457-0.499-0.623-1.323-0.623-2.415v-5.059h-1.365v-1.285h1.365v-2.223L62.229,18.087z"/>
					</g>
					<g>
						<path fill="#115E8F" d="M67.113,25.698c0.037,2.278,1.424,3.218,3.025,3.218c1.148,0,1.84-0.212,2.439-0.479l0.275,1.207
							c-0.568,0.269-1.531,0.575-2.936,0.575c-2.713,0-4.334-1.879-4.334-4.677s1.566-5.001,4.135-5.001
							c2.881,0,3.648,2.664,3.648,4.368c0,0.348-0.041,0.612-0.059,0.788H67.113z M71.814,24.489c0.02-1.073-0.42-2.738-2.225-2.738
							c-1.621,0-2.33,1.569-2.459,2.738H71.814z"/>
					</g>
					<g>
						<path fill="#115E8F" d="M75.35,16.421h1.604v13.606H75.35V16.421z"/>
					</g>
					<g>
						<path fill="#115E8F" d="M79.432,28.304c0.473,0.327,1.313,0.67,2.111,0.67c1.168,0,1.713-0.611,1.713-1.381
							c0-0.804-0.453-1.245-1.641-1.703c-1.584-0.595-2.33-1.514-2.33-2.627c0-1.493,1.148-2.721,3.041-2.721
							c0.895,0,1.678,0.266,2.17,0.576l-0.4,1.225c-0.346-0.229-0.982-0.536-1.805-0.536c-0.947,0-1.475,0.576-1.475,1.264
							c0,0.767,0.527,1.112,1.676,1.572c1.529,0.615,2.314,1.419,2.314,2.797c0,1.631-1.205,2.78-3.297,2.78
							c-0.969,0-1.859-0.249-2.48-0.632L79.432,28.304z"/>
					</g>
				</g>
			</g>
			<g>
				<g>
					<path fill="#D3902A" d="M12.861,7.195c0,0-0.447-0.028-0.736,0.111c0,0-1.646-0.182-2.334,0.641c0,0-0.506,0.729-0.52,1.219
						C9.264,9.345,9.127,9.561,9.107,9.757c-0.066,0.764,0.266,1.301,0.654,1.905c0,0-0.232,1.37,1.303,2.284
						c0,0,0.508,1.096,2.273,1.494c0,0,1.898,1.308,3.824,0.639c0,0,3.068,0.334,4.098-1.888c0,0,1.174-0.657,1.434-2.118
						c0,0,0.42-0.64,0.174-1.05c0,0,0.998-1.508-0.639-2.544c0,0-1.332-0.837-3.098-0.687l-4.648-0.409L12.861,7.195z"/>
				</g>
				<g>
					<path fill="#D1B344" d="M14.561,8.019c0,0-1.709,1.146-1.984,1.846c0,0,1.088,0.183,1.592,0.79c0,0,1.898,0.383,2.303,1.159
						c0,0,0.926-0.549,2.303-0.214c0,0,1.129-0.699,2.734-0.229c0,0,0.473-0.47-0.271-1.505c-0.059-0.082-0.127-0.17-0.203-0.261
						c-1.029-1.221-2.549-1.296-2.549-1.296l0.203-0.395l0.594-0.383c0,0,0.811,0.152,1.664,0.367c0,0,1.406,0.365,1.943,1.034
						c0,0,0.389,0.99-0.088,1.844c0,0,0.143,0.51-0.232,0.915c0,0,0.246,0.333-0.203,0.943c0,0-0.711,0.852-1.246,1.156
						c0,0-1.027,2.179-3.676,1.509c0,0-2.246,0.884-3.736-0.335c0,0-2.623-0.898-3.26-2.606c0,0-0.926-1.035-0.811-3.059
						c0,0,0.189-0.747,0.492-1.007l0.027-0.576c0,0,0.797-0.583,1.824-0.428c0,0,1.623-0.355,2.23-0.025L14.561,8.019z"/>
				</g>
				<g>
					<g>
						<path fill-rule="evenodd" clip-rule="evenodd" fill="#2A1310" d="M22.512,8.989c-0.027-0.012-0.059-0.027-0.09-0.036
							c-0.033-0.007-0.063-0.02-0.094-0.015c-0.129,0.015-0.252,0.008-0.379-0.016c-0.064-0.012-0.131-0.031-0.193-0.056
							c-0.066-0.025-0.137-0.039-0.201-0.074c-0.064-0.031-0.129-0.054-0.191-0.084c-0.072-0.03-0.143-0.072-0.213-0.104
							c-0.055-0.027-0.104-0.057-0.154-0.086c-0.016-0.009-0.035-0.022-0.045-0.039c-0.029-0.035-0.045-0.076-0.076-0.111
							c-0.025-0.034-0.051-0.07-0.074-0.105c0.1,0.193,0.203,0.39,0.291,0.593c0.025,0.01,0.039,0.015,0.059,0.023
							c0.08,0.037,0.16,0.078,0.246,0.11c0.078,0.031,0.162,0.052,0.244,0.074c0.105,0.027,0.219,0.039,0.33,0.043
							c0.18,0.008,0.361-0.006,0.533-0.071c0.014-0.004,0.033-0.004,0.039-0.031C22.533,8.999,22.525,8.994,22.512,8.989z"/>
					</g>
					<g>
						<path fill="#2A1310" d="M12.547,8.306c-0.008,0.007-0.012,0.012-0.018,0.015l0,0c-0.043,0.022-0.08,0.048-0.121,0.07
							c-0.01,0.005-0.02,0.009-0.029,0.016c-0.059,0.035-0.121,0.072-0.182,0.106c-0.051,0.027-0.098,0.049-0.15,0.071
							c-0.074,0.034-0.15,0.068-0.227,0.097c-0.064,0.025-0.131,0.052-0.199,0.068c-0.072,0.02-0.154,0.031-0.23,0.046
							c-0.016,0.006-0.027,0.006-0.041,0.01c-0.086,0.018-0.166,0.02-0.252-0.002c-0.014-0.005-0.033-0.005-0.051,0.001
							c-0.035,0.012-0.07,0.025-0.107,0.036c-0.021,0.012-0.041,0.016-0.064,0.025c0,0.002,0,0.007,0,0.011
							c0.02,0.01,0.029,0.023,0.049,0.027c0.064,0.02,0.127,0.04,0.193,0.047c0.107,0.012,0.217,0.037,0.33,0.023
							c0.066-0.012,0.141-0.012,0.211-0.025c0.09-0.015,0.18-0.033,0.266-0.061c0.098-0.034,0.191-0.067,0.287-0.11
							c0.123-0.059,0.238-0.125,0.352-0.204c0.004-0.004,0.01-0.004,0.014-0.005C12.566,8.481,12.555,8.393,12.547,8.306z"/>
					</g>
					<g>
						<path fill-rule="evenodd" clip-rule="evenodd" fill="#2A1310" d="M16.443,11.649c-0.016,0.024-0.027,0.048,0.002,0.074
							c0.02-0.012,0.043-0.022,0.063-0.036c0.096-0.068,0.197-0.12,0.301-0.168c0.068-0.028,0.141-0.046,0.207-0.075
							c0.074-0.035,0.152-0.046,0.225-0.062c0.068-0.012,0.139-0.017,0.209-0.023c0.018-0.003,0.035,0,0.055-0.005
							c0.102-0.023,0.207-0.017,0.313-0.009c0.051,0.004,0.104,0.007,0.158,0.015c0.068,0.008,0.135,0.015,0.203,0.025
							c0.037,0.007,0.076,0.013,0.113,0.018c0.047,0.006,0.088,0.022,0.131,0.04c0.053,0.02,0.107,0.026,0.166,0.041
							c0.023,0.007,0.049,0.012,0.068,0.019c0.072,0.024,0.146,0.046,0.219,0.071c0.059,0.019,0.115,0.044,0.174,0.069
							c0.004,0,0.008,0.004,0.012,0.007c-0.004,0.02-0.014,0.016-0.029,0.016c-0.148-0.018-0.297-0.033-0.449-0.047
							c-0.076-0.007-0.148-0.007-0.227-0.014c-0.17-0.015-0.342-0.021-0.514-0.018c-0.078,0.005-0.16,0.01-0.236,0.017
							c-0.076,0.005-0.154,0.008-0.23,0.017c-0.09,0.01-0.178,0.02-0.264,0.032c-0.053,0.007-0.102,0.025-0.156,0.036
							c-0.033,0.01-0.07,0.019-0.107,0.027c-0.096,0.023-0.186,0.063-0.273,0.11c-0.051,0.025-0.104,0.052-0.146,0.098
							c-0.014,0.018-0.045,0.023-0.07,0.035c-0.033,0.011-0.063,0.019-0.096,0.027c-0.016,0.005-0.035,0.008-0.051,0.008
							s-0.021-0.013-0.016-0.026c0.008-0.015,0.018-0.025,0.027-0.034c0.047-0.046,0.09-0.089,0.135-0.136
							c0.006-0.003,0.01-0.011,0.016-0.017c-0.016-0.022-0.033-0.039-0.057-0.05c-0.027-0.009-0.041-0.031-0.061-0.054
							c-0.033-0.051-0.061-0.103-0.105-0.144c-0.039-0.032-0.07-0.068-0.109-0.102c-0.031-0.03-0.07-0.062-0.105-0.088
							c-0.061-0.039-0.117-0.075-0.18-0.11c-0.061-0.038-0.127-0.08-0.191-0.111c-0.092-0.043-0.188-0.085-0.281-0.128
							c-0.047-0.023-0.096-0.041-0.143-0.061c-0.098-0.035-0.189-0.074-0.285-0.101c-0.098-0.028-0.189-0.065-0.287-0.097
							c-0.027-0.01-0.057-0.018-0.084-0.027c-0.135-0.033-0.268-0.064-0.398-0.099c-0.047-0.015-0.096-0.027-0.145-0.04
							c-0.018-0.006-0.039-0.006-0.057-0.009c-0.02-0.007-0.033-0.012-0.049-0.023c0.07-0.02,0.137-0.011,0.207-0.02
							c-0.02-0.016-0.041-0.021-0.064-0.026c-0.045-0.009-0.08-0.032-0.113-0.065c-0.043-0.046-0.09-0.086-0.146-0.114
							c-0.039-0.022-0.072-0.054-0.115-0.073c-0.082-0.034-0.162-0.066-0.244-0.098c-0.104-0.044-0.209-0.06-0.311-0.095
							c-0.064-0.021-0.131-0.027-0.197-0.039c-0.076-0.014-0.148-0.032-0.227-0.042c-0.09-0.014-0.182-0.022-0.275-0.029
							c-0.184-0.015-0.371-0.021-0.557-0.037C11.635,9.89,11.48,9.89,11.322,9.89c-0.016,0-0.033,0.003-0.049,0.004
							c-0.004-0.021,0.008-0.027,0.025-0.029c0.057-0.013,0.117-0.024,0.176-0.036c0.012-0.004,0.025-0.004,0.037-0.008
							c0.109-0.041,0.229-0.049,0.344-0.064c0.09-0.013,0.182-0.026,0.273-0.034c0.086-0.008,0.172-0.002,0.258-0.013
							c0.086-0.009,0.168,0.005,0.252,0.011c0.047,0.001,0.094,0.008,0.137,0.016c0.1,0.018,0.197,0.038,0.295,0.054
							c0.006,0.002,0.01,0.002,0.012,0.002c0.061,0.037,0.129,0.04,0.188,0.068c0.068,0.036,0.148,0.056,0.217,0.094
							c0.068,0.04,0.135,0.086,0.201,0.129c0.006,0.005,0.016,0.011,0.021,0.014c0.02,0.005,0.035,0.017,0.047,0.033
							c0.01,0.015,0.025,0.021,0.037,0.032c0.018,0.018,0.037,0.033,0.057,0.046c0.074,0.059,0.131,0.133,0.193,0.204
							c0.021,0.022,0.043,0.051,0.057,0.079c0.012,0.018,0.02,0.028,0.043,0.028c0.084,0.002,0.17,0.009,0.254,0.011
							c0.02,0,0.037,0.002,0.059,0.004c0.043,0.005,0.09,0.003,0.135,0.014c0.076,0.02,0.154,0.01,0.227,0.045
							c0.033,0.016,0.07,0.021,0.107,0.024c0.078,0.005,0.154,0.035,0.229,0.06c0.076,0.026,0.152,0.056,0.229,0.085
							c0.074,0.033,0.148,0.063,0.219,0.103c0.063,0.031,0.125,0.074,0.184,0.112c0.057,0.038,0.111,0.077,0.16,0.118
							c0.043,0.034,0.08,0.071,0.117,0.108c0.033,0.033,0.068,0.068,0.105,0.102c0.004,0.008,0.014,0.013,0.018,0.021
							c0.039,0.05,0.078,0.098,0.111,0.149c0.035,0.046,0.063,0.098,0.094,0.147C16.408,11.653,16.408,11.653,16.443,11.649z"/>
					</g>
					<g>
						<path fill-rule="evenodd" clip-rule="evenodd" fill="#2A1310" d="M13.502,12.291c0.004,0.002,0,0.008-0.016,0.012
							c-0.051,0.014-0.102,0.027-0.148,0.039c-0.25,0.067-0.5,0.129-0.758,0.163c-0.074,0.011-0.148,0.02-0.227,0.027
							c-0.316,0.027-0.635,0.028-0.951-0.021c-0.252-0.041-0.498-0.101-0.73-0.208c-0.078-0.033-0.146-0.075-0.217-0.108
							c-0.115-0.057-0.213-0.134-0.316-0.202c-0.055-0.044-0.111-0.088-0.168-0.136c-0.074-0.071-0.145-0.15-0.209-0.235
							c-0.023-0.033-0.014-0.063-0.01-0.102c0.033,0.008,0.063,0.018,0.094,0.025c0.029,0.011,0.059,0.018,0.084,0.031
							c0.035,0.017,0.066,0.04,0.094,0.067c0.223,0.195,0.486,0.305,0.762,0.395c0.256,0.082,0.523,0.127,0.787,0.162
							c0.189,0.023,0.377,0.047,0.57,0.06c0.277,0.016,0.563,0.025,0.842,0.027c0.082,0,0.166,0,0.252-0.002
							c0.045-0.001,0.096-0.01,0.145-0.013c0.027,0,0.061-0.003,0.088,0C13.475,12.275,13.498,12.281,13.502,12.291z"/>
					</g>
					<g>
						<path fill-rule="evenodd" clip-rule="evenodd" fill="#2A1310" d="M17.992,15.268c0.012-0.009,0.016-0.015,0.023-0.017
							c0.064-0.019,0.125-0.037,0.189-0.053c0.066-0.015,0.148,0.016,0.213,0.022c0.244,0.026,0.508-0.054,0.74-0.13
							c0.07-0.022,0.137-0.049,0.207-0.073c0.146-0.059,0.285-0.13,0.424-0.201c0.021-0.011,0.041-0.02,0.061-0.028
							c0.072-0.035,0.143-0.07,0.215-0.107c0.059-0.031,0.111-0.068,0.17-0.1c0.002-0.003,0.004-0.004,0.008-0.004
							c0.18-0.101,0.354-0.207,0.527-0.317c0.055-0.035,0.109-0.068,0.164-0.108c0.047-0.034,0.092-0.067,0.143-0.102
							c0.014-0.012,0.031-0.021,0.053-0.03c-0.006,0.085-0.049,0.116-0.096,0.169c-0.154,0.174-0.326,0.323-0.498,0.468
							c-0.043,0.04-0.086,0.074-0.129,0.109c-0.016,0.015-0.033,0.022-0.047,0.034c-0.068,0.048-0.129,0.097-0.197,0.141
							c-0.057,0.035-0.111,0.07-0.17,0.102c-0.078,0.043-0.154,0.087-0.234,0.125c-0.02,0.017-0.049,0.023-0.07,0.032
							c-0.275,0.135-0.574,0.208-0.879,0.222c-0.086,0.004-0.176,0.004-0.266,0c-0.109-0.003-0.205-0.033-0.316-0.059
							c-0.068-0.017-0.141-0.037-0.203-0.074C18.016,15.283,18.006,15.278,17.992,15.268z"/>
					</g>
					<g>
						<path fill-rule="evenodd" clip-rule="evenodd" fill="#2A1310" d="M20.338,13.576c-0.012,0.01-0.025,0.023-0.039,0.031
							c-0.18,0.109-0.361,0.205-0.549,0.3c-0.146,0.077-0.313,0.148-0.475,0.197c-0.357,0.108-0.725,0.195-1.105,0.19
							c-0.107-0.002-0.217-0.011-0.32-0.03c-0.297-0.051-0.572-0.157-0.82-0.337c-0.031-0.021-0.078-0.047-0.098-0.081
							c0.057-0.024,0.143-0.014,0.207-0.008c0.057,0.005,0.102,0.033,0.152,0.057c0.059,0.031,0.125,0.049,0.193,0.066
							c0.137,0.034,0.271,0.049,0.414,0.052c0.336,0.007,0.668-0.029,0.996-0.087c0.094-0.02,0.189-0.037,0.281-0.053
							c0.271-0.052,0.541-0.123,0.809-0.206c0.1-0.032,0.201-0.067,0.303-0.098c0.016-0.004,0.029-0.005,0.045-0.008
							C20.334,13.566,20.336,13.571,20.338,13.576z"/>
					</g>
					<g>
						<path fill-rule="evenodd" clip-rule="evenodd" fill="#2A1310" d="M9.281,9.07c0.018,0.013,0.037,0.021,0.049,0.03
							c0.061,0.046,0.121,0.089,0.178,0.134C9.512,9.237,9.512,9.237,9.516,9.24c0.057,0.063,0.127,0.1,0.191,0.146
							c0.045,0.037,0.094,0.064,0.141,0.095c0.059,0.046,0.119,0.088,0.184,0.128c0.082,0.053,0.16,0.104,0.24,0.152
							c0.082,0.049,0.166,0.098,0.248,0.144c0.072,0.037,0.145,0.071,0.219,0.104c0.074,0.037,0.156,0.067,0.236,0.1
							c0.078,0.035,0.16,0.052,0.238,0.081c0.137,0.043,0.273,0.056,0.412,0.05c0.006,0,0.01,0,0.018-0.003
							c0.094-0.022,0.178,0.021,0.26,0.063c0.004,0,0.004,0.003,0.004,0.013c-0.012,0.005-0.023,0.014-0.035,0.017
							c-0.207,0.067-0.416,0.085-0.629,0.065c-0.121-0.009-0.232-0.041-0.348-0.07c-0.037-0.008-0.076-0.01-0.109-0.029
							c-0.033-0.021-0.074-0.029-0.109-0.045c-0.076-0.034-0.148-0.065-0.219-0.102c-0.066-0.035-0.127-0.076-0.191-0.118
							c-0.045-0.027-0.092-0.057-0.137-0.09C10.07,9.896,10.004,9.853,9.949,9.8C9.906,9.762,9.861,9.728,9.818,9.691
							c-0.012-0.01-0.021-0.019-0.027-0.029C9.775,9.648,9.762,9.637,9.746,9.619c-0.012-0.008-0.025-0.021-0.037-0.03
							C9.693,9.57,9.674,9.555,9.656,9.534C9.65,9.532,9.646,9.528,9.643,9.523c-0.061-0.063-0.121-0.127-0.18-0.19
							C9.426,9.29,9.391,9.245,9.357,9.205C9.344,9.188,9.324,9.174,9.311,9.156C9.293,9.135,9.277,9.111,9.281,9.07z"/>
					</g>
					<g>
						<path fill-rule="evenodd" clip-rule="evenodd" fill="#2A1310" d="M11.664,10.676c0.006-0.022,0.021-0.021,0.033-0.021
							c0.162-0.006,0.324-0.008,0.486,0.009c0.102,0.01,0.201,0.017,0.299,0.031c0.08,0.012,0.156,0.017,0.236,0.046
							c0.049,0.017,0.102,0.024,0.154,0.032c0.09,0.018,0.17,0.053,0.256,0.081c0.076,0.027,0.146,0.056,0.215,0.092
							c0.064,0.036,0.139,0.062,0.197,0.111c0.01,0.009,0.029,0.014,0.043,0.024c0.066,0.04,0.133,0.084,0.193,0.138
							c0.041,0.036,0.082,0.067,0.121,0.104c0.012,0.009,0.023,0.023,0.035,0.037c0.014,0.013,0.029,0.027,0.045,0.044
							c0.006,0.003,0.012,0.009,0.018,0.017c0.055,0.063,0.107,0.125,0.154,0.196c0.045,0.069,0.096,0.138,0.123,0.222
							c0.006,0.015,0.018,0.026,0.023,0.044c0.008,0.015,0.014,0.034,0.021,0.053c-0.029,0.014-0.045-0.006-0.064-0.016
							c-0.021-0.015-0.043-0.032-0.068-0.046c-0.047-0.022-0.076-0.066-0.109-0.109c-0.025-0.043-0.059-0.085-0.098-0.123
							c-0.045-0.044-0.092-0.085-0.143-0.124c-0.043-0.033-0.086-0.064-0.129-0.095c-0.074-0.048-0.152-0.092-0.229-0.139
							c-0.014-0.007-0.025-0.013-0.035-0.018c-0.086-0.038-0.172-0.079-0.26-0.118c-0.078-0.036-0.16-0.068-0.24-0.104
							c-0.025-0.011-0.049-0.015-0.07-0.022c-0.098-0.032-0.197-0.065-0.297-0.099c-0.029-0.01-0.061-0.023-0.094-0.032
							c-0.049-0.019-0.104-0.032-0.152-0.045c-0.082-0.022-0.164-0.045-0.244-0.067c-0.127-0.036-0.26-0.071-0.391-0.09
							C11.686,10.683,11.674,10.68,11.664,10.676z"/>
					</g>
					<g>
						<path fill-rule="evenodd" clip-rule="evenodd" fill="#2A1310" d="M13.279,13.542c-0.004,0.007-0.012,0.018-0.023,0.023
							c-0.049,0.031-0.102,0.063-0.156,0.092c-0.061,0.038-0.125,0.075-0.189,0.11c-0.01,0.008-0.023,0.013-0.037,0.02
							c-0.094,0.039-0.188,0.075-0.281,0.119c-0.078,0.04-0.17,0.049-0.25,0.08c-0.082,0.033-0.168,0.043-0.252,0.055
							c-0.092,0.015-0.18,0.027-0.271,0.027c-0.15,0.004-0.299-0.011-0.447-0.053c-0.082-0.021-0.23-0.054-0.273-0.14
							c-0.031-0.055-0.082-0.089-0.131-0.127c0.135-0.037,0.26,0.079,0.389,0.098c0.127,0.017,0.258,0.027,0.389,0.023
							c0.09-0.005,0.18-0.015,0.27-0.023c0.074-0.008,0.143-0.024,0.219-0.04c0.068-0.015,0.135-0.022,0.203-0.036
							c0.031-0.006,0.064-0.02,0.1-0.028c0.037-0.008,0.074-0.017,0.113-0.025c0.049-0.013,0.094-0.021,0.139-0.034
							c0.082-0.025,0.17-0.048,0.248-0.075c0.059-0.016,0.113-0.038,0.172-0.056c0.023-0.01,0.047-0.013,0.07-0.022
							C13.279,13.534,13.279,13.539,13.279,13.542z"/>
					</g>
					<g>
						<path fill-rule="evenodd" clip-rule="evenodd" fill="#2A1310" d="M16.771,12.346c-0.016,0.003-0.023,0.004-0.035,0.006
							c-0.057,0.003-0.115,0.008-0.172,0.007c-0.045,0-0.088-0.007-0.133-0.01c-0.014,0-0.027-0.003-0.041-0.003
							c-0.197-0.004-0.4-0.014-0.6-0.01c-0.186,0.003-0.371,0.014-0.557,0.026c-0.086,0.004-0.174,0.021-0.26,0.029
							c-0.145,0.014-0.293,0.024-0.438,0.037c-0.043,0.007-0.082,0.016-0.125,0.021c-0.088,0.011-0.176,0.021-0.262,0.031
							c-0.076,0.009-0.15,0.016-0.225,0.027c-0.139,0.02-0.277,0.041-0.416,0.061c-0.082,0.014-0.166,0.03-0.246,0.045
							c-0.053,0.008-0.107,0.014-0.158,0.022c-0.016,0.001-0.031-0.003-0.053-0.004c0.008-0.009,0.01-0.015,0.014-0.019
							c0.117-0.037,0.232-0.06,0.352-0.087c0.018-0.006,0.033-0.011,0.051-0.016c0.053-0.015,0.109-0.026,0.164-0.04
							c0.057-0.012,0.117-0.024,0.178-0.037c0.047-0.01,0.088-0.02,0.135-0.026c0.086-0.016,0.174-0.024,0.26-0.041
							c0.027-0.001,0.049-0.013,0.074-0.018c0.164-0.021,0.33-0.036,0.498-0.062c0.277-0.042,0.557-0.043,0.836-0.047
							c0.184-0.003,0.369,0.004,0.553,0.011c0.082,0.003,0.164,0.011,0.248,0.019c0.084,0.012,0.166,0.027,0.252,0.039
							c0.021,0.002,0.037,0.006,0.057,0.007C16.738,12.316,16.76,12.319,16.771,12.346z"/>
					</g>
					<g>
						<path fill-rule="evenodd" clip-rule="evenodd" fill="#2A1310" d="M20.717,13.099c-0.014,0-0.025,0-0.039,0
							c-0.02-0.003-0.037-0.008-0.055-0.012c-0.066-0.003-0.129-0.016-0.193-0.034c-0.07-0.021-0.145-0.033-0.215-0.053
							c-0.137-0.039-0.275-0.055-0.414-0.073c-0.074-0.012-0.15-0.024-0.227-0.037c-0.096-0.013-0.195-0.019-0.293-0.029
							c-0.076-0.01-0.15-0.024-0.225-0.031c-0.076-0.009-0.152-0.015-0.227-0.018c-0.209-0.014-0.414-0.026-0.619-0.034
							c-0.119-0.007-0.238-0.007-0.355-0.015c-0.244-0.018-0.49-0.023-0.736-0.023c-0.027,0-0.055,0.003-0.078,0
							c-0.016,0-0.031-0.003-0.051-0.008c0-0.004,0-0.008,0-0.011c0.016-0.003,0.025-0.006,0.039-0.006
							c0.215-0.019,0.43-0.027,0.646-0.04c0.168-0.008,0.332-0.014,0.502-0.012c0.086,0,0.17,0.007,0.26,0.012
							c0.006,0.003,0.01,0.003,0.016,0.003c0.135,0.005,0.275,0.01,0.406,0.021c0.111,0.005,0.221,0.016,0.328,0.028
							c0.117,0.012,0.229,0.033,0.344,0.053c0.074,0.01,0.148,0.021,0.223,0.034c0.121,0.021,0.244,0.048,0.363,0.075
							c0.045,0.013,0.092,0.026,0.135,0.039c0.025,0.005,0.051,0.013,0.074,0.021c0.104,0.028,0.209,0.063,0.314,0.096
							c0.027,0.008,0.055,0.026,0.08,0.041C20.719,13.091,20.719,13.093,20.717,13.099z"/>
					</g>
					<g>
						<path fill-rule="evenodd" clip-rule="evenodd" fill="#2A1310" d="M14.877,15.355c0.061,0.004,0.119,0.002,0.178,0.034
							c0.109,0.068,0.234,0.111,0.365,0.123c0.039,0.002,0.074,0.014,0.109,0.02c0.031,0.004,0.057,0.008,0.088,0.008
							c0.121,0.001,0.244,0.001,0.365-0.001c0.055-0.001,0.107-0.009,0.164-0.017c0.033-0.003,0.066-0.008,0.102-0.014
							c0.111-0.009,0.223-0.021,0.332-0.036c0.07-0.009,0.137-0.029,0.203-0.046c0.039-0.009,0.08-0.014,0.119-0.022
							c0.016-0.004,0.033-0.009,0.051-0.015c0.006,0,0.014,0.007,0.021,0.007c-0.002,0.011-0.004,0.021-0.008,0.028
							c-0.006,0.007-0.014,0.01-0.021,0.013c-0.033,0.016-0.066,0.034-0.1,0.047c-0.021,0.012-0.043,0.016-0.064,0.024
							c-0.08,0.043-0.172,0.068-0.258,0.104c-0.109,0.043-0.223,0.066-0.334,0.093c-0.066,0.017-0.137,0.026-0.203,0.028
							c-0.111,0.005-0.221,0.005-0.328,0c-0.082-0.005-0.156-0.012-0.232-0.041c-0.043-0.018-0.088-0.025-0.133-0.041
							c-0.021-0.006-0.045-0.02-0.07-0.032c-0.041-0.017-0.082-0.032-0.119-0.058c-0.045-0.031-0.102-0.053-0.141-0.098
							c-0.02-0.021-0.045-0.037-0.068-0.057C14.883,15.396,14.867,15.387,14.877,15.355z"/>
					</g>
					<g>
						<path fill-rule="evenodd" clip-rule="evenodd" fill="#2A1310" d="M13.305,13.722c0.01-0.003,0.014-0.005,0.018-0.005
							c0.037,0.007,0.119,0.075,0.143,0.107c0.139,0.187,0.328,0.31,0.531,0.406c0.102,0.047,0.199,0.098,0.309,0.125
							c0.031,0.009,0.061,0.028,0.086,0.037c0.115,0.039,0.234,0.077,0.354,0.111c0.104,0.03,0.205,0.058,0.311,0.077
							c0.045,0.012,0.09,0.023,0.133,0.035c0.004,0.001,0.006,0.007,0.014,0.015c-0.02,0.004-0.033,0.011-0.049,0.011
							c-0.15-0.002-0.297,0.005-0.447-0.016c-0.137-0.015-0.266-0.045-0.398-0.077c-0.082-0.02-0.164-0.049-0.242-0.086
							c-0.225-0.109-0.438-0.247-0.6-0.452c-0.061-0.081-0.109-0.167-0.15-0.258C13.309,13.742,13.309,13.732,13.305,13.722z"/>
					</g>
					<g>
						<path fill-rule="evenodd" clip-rule="evenodd" fill="#2A1310" d="M16.176,14.631H16.17c-0.02,0.021-0.076-0.03-0.09-0.047
							c-0.035-0.026-0.063-0.063-0.09-0.101c-0.068-0.091-0.156-0.159-0.248-0.22c-0.043-0.03-0.09-0.057-0.129-0.08
							c-0.125-0.066-0.254-0.123-0.385-0.176c-0.129-0.052-0.258-0.098-0.391-0.136c-0.127-0.037-0.258-0.076-0.389-0.101
							c-0.043-0.007-0.084-0.021-0.127-0.034c-0.012-0.003-0.023-0.01-0.031-0.025c0.014,0,0.027-0.005,0.039-0.005
							c0.195,0,0.391,0.005,0.584,0.035c0.057,0.011,0.107,0.022,0.164,0.035c0.158,0.035,0.316,0.088,0.459,0.167
							c0.121,0.063,0.24,0.143,0.338,0.238c0.033,0.027,0.061,0.057,0.084,0.087c0.051,0.053,0.098,0.113,0.135,0.177
							c0.02,0.032,0.035,0.063,0.053,0.099C16.154,14.562,16.195,14.611,16.176,14.631z"/>
					</g>
					<g>
						<path fill-rule="evenodd" clip-rule="evenodd" fill="#2A1310" d="M20.996,12.536c0.02-0.012,0.021-0.021,0.029-0.023
							c0.043-0.017,0.088-0.03,0.131-0.021c0.111,0.015,0.219,0.005,0.32-0.026c0.098-0.029,0.193-0.061,0.287-0.1
							c0.068-0.026,0.131-0.065,0.195-0.099c0.07-0.037,0.145-0.072,0.215-0.118c0.094-0.055,0.189-0.113,0.279-0.18
							c0.023-0.021,0.053-0.036,0.08-0.054c0.023,0.026,0,0.045,0,0.067c0,0.021,0,0.041-0.008,0.065
							c-0.004-0.013-0.008-0.024-0.016-0.04c-0.018,0.013-0.033,0.021-0.047,0.035c-0.027,0.024-0.053,0.055-0.076,0.081
							c-0.02,0.017-0.037,0.024-0.055,0.041c-0.012,0.008-0.021,0.015-0.031,0.022c-0.035,0.028-0.066,0.057-0.104,0.085
							c-0.066,0.056-0.139,0.102-0.217,0.147c-0.078,0.051-0.164,0.081-0.246,0.116c-0.049,0.023-0.102,0.032-0.156,0.043
							c-0.061,0.012-0.121,0.022-0.182,0.027c-0.053,0.003-0.105,0-0.154-0.008c-0.074-0.015-0.141-0.031-0.211-0.048
							C21.021,12.549,21.016,12.544,20.996,12.536z"/>
					</g>
					<g>
						<path fill-rule="evenodd" clip-rule="evenodd" fill="#2A1310" d="M22.756,10.875c0.012,0.031,0.004,0.049-0.014,0.064
							c-0.043,0.043-0.086,0.089-0.127,0.131c-0.008,0.006-0.012,0.012-0.018,0.019c-0.055,0.047-0.113,0.095-0.17,0.139
							c-0.043,0.037-0.096,0.067-0.145,0.103c-0.078,0.053-0.16,0.097-0.246,0.139c-0.035,0.016-0.074,0.024-0.113,0.041
							c-0.029,0.01-0.061,0.023-0.088,0.031c-0.121,0.027-0.244,0.04-0.367,0.026c-0.047-0.003-0.098-0.012-0.145-0.019
							c-0.039-0.006-0.074-0.021-0.109-0.049c0.006-0.007,0.008-0.014,0.014-0.017c0.045-0.015,0.086-0.027,0.137-0.022
							c0.061,0.008,0.119,0.008,0.186,0.002c0.092-0.006,0.178-0.041,0.266-0.072c0.082-0.029,0.164-0.061,0.244-0.101
							c0.064-0.03,0.131-0.066,0.191-0.101c0.08-0.044,0.156-0.087,0.232-0.133c0.049-0.028,0.092-0.065,0.137-0.098
							C22.666,10.93,22.707,10.904,22.756,10.875z"/>
					</g>
					<g>
						<path fill-rule="evenodd" clip-rule="evenodd" fill="#2A1310" d="M16.205,15.007c0.01-0.011,0.018-0.024,0.031-0.034
							c0.074-0.051,0.141-0.112,0.217-0.156c0.086-0.051,0.174-0.104,0.27-0.131c0.039-0.013,0.08-0.029,0.119-0.039
							c0.111-0.027,0.219-0.034,0.332-0.016c0.059,0.009,0.123,0.016,0.174,0.054c0.014,0.006,0.025,0.008,0.039,0.016
							c0.006,0.005,0.01,0.013,0.016,0.021c-0.006,0.006-0.01,0.015-0.016,0.015c-0.023,0.004-0.049,0.007-0.066,0.004
							c-0.123-0.034-0.244-0.027-0.359,0c-0.109,0.022-0.217,0.058-0.324,0.094c-0.059,0.019-0.121,0.042-0.176,0.072
							c-0.072,0.032-0.141,0.067-0.211,0.102c-0.01,0.007-0.027,0.011-0.039,0.014C16.207,15.018,16.207,15.011,16.205,15.007z"/>
					</g>
				</g>
				<g>
					<g>
						<g>
							<path fill="#0C4D73" d="M14.287,6.842V6.84c0,0-0.006,0-0.008,0c-0.014-0.006-0.025-0.008-0.035-0.011
								c-0.025-0.018,0.006-0.044,0.006-0.044l0.057-0.122l-0.074,0.053c-0.018,0.011-0.105,0.084-0.117,0.037
								c-0.012-0.039,0.02-0.101,0.037-0.137c0.027-0.048,0.057-0.088,0.063-0.146c0.004-0.033,0-0.099-0.049-0.069
								c-0.051,0.033-0.076,0.124-0.092,0.183c-0.01,0.038-0.012,0.077-0.031,0.111C14.031,6.708,14,6.753,13.99,6.719
								c0-0.005-0.002-0.008-0.002-0.016c-0.008-0.057-0.01-0.21-0.01-0.21c-0.002-0.039-0.033-0.236-0.082-0.232
								c-0.078,0.004-0.098,0.085-0.074,0.152c0.025,0.061,0.049,0.118,0.076,0.18c0.012,0.023,0.025,0.128-0.027,0.071
								c-0.031-0.036-0.053-0.097-0.084-0.139c-0.037-0.047-0.066-0.092-0.102-0.136c-0.102-0.117-0.131-0.016-0.131-0.016
								c-0.006,0.012,0.045,0.07,0.053,0.08c0.025,0.036,0.053,0.069,0.08,0.104c0.021,0.024,0.041,0.045,0.061,0.072
								c0.014,0.019,0.082,0.122,0.014,0.095c-0.041-0.018-0.074-0.059-0.109-0.091c-0.027-0.025-0.057-0.056-0.082-0.079
								c-0.029-0.027-0.072-0.063-0.109-0.079c-0.047-0.014-0.063,0.026-0.033,0.063c0.025,0.042,0.074,0.064,0.113,0.098
								c0.014,0.013,0.123,0.074,0.09,0.103c-0.027,0.021-0.07-0.021-0.094-0.019c-0.084,0.009,0.01,0.055,0.014,0.095
								c-0.613,0.155-1.068,0.74-1.068,1.438c0,0.817,0.623,1.479,1.389,1.479c0.773,0,1.396-0.661,1.396-1.479
								C15.268,7.589,14.855,7.028,14.287,6.842z"/>
						</g>
						<g>
							<g>
								<path fill="#18668F" d="M13.967,8.744c0.039-0.021,0.076-0.052,0.117-0.079c0.057-0.043,0.111-0.088,0.152-0.155
									c0,0,0.057-0.11-0.105-0.194c-0.152-0.079-0.344-0.105-0.5-0.038c-0.061,0.026-0.125,0.063-0.166,0.122
									c-0.037,0.063,0.004,0.127,0.045,0.166c0.047,0.045,0.098,0.082,0.15,0.117c0.072,0.043,0.143,0.098,0.225,0.088
									C13.914,8.769,13.939,8.757,13.967,8.744z"/>
							</g>
							<g>
								<path fill="#429DD6" d="M13.969,8.68c0.043-0.02,0.082-0.045,0.117-0.07c0.059-0.037,0.117-0.074,0.156-0.136
									c0,0,0.063-0.095-0.104-0.168c-0.158-0.069-0.352-0.09-0.514-0.031c-0.061,0.023-0.127,0.053-0.168,0.106
									c-0.039,0.05,0,0.108,0.045,0.143c0.047,0.039,0.098,0.071,0.152,0.101c0.07,0.038,0.148,0.085,0.23,0.078
									C13.914,8.699,13.941,8.69,13.969,8.68z"/>
							</g>
						</g>
						<g>
							<g>
								<path fill="#135B84" d="M13.699,8.427c0,0,0,0,0,0.002c0.004,0.002,0.01,0.007,0.01,0.009
									c0.006,0.003,0.012,0.007,0.014,0.011s0.01,0.008,0.01,0.015c0.002,0,0.004,0,0.004,0.003v0.007c0,0,0.014,0.017,0.02-0.023
									c0,0,0.002-0.029-0.023-0.041c-0.01-0.002-0.016-0.002-0.023,0.003C13.705,8.416,13.695,8.42,13.699,8.427z"/>
							</g>
							<g>
								<path fill="#135B84" d="M14.018,8.427c0,0,0,0,0,0.002s-0.006,0.007-0.012,0.009C14.002,8.44,14,8.444,13.994,8.448
									c-0.004,0.004-0.008,0.008-0.01,0.015c-0.004,0-0.004,0-0.004,0.003c0,0.002,0,0.007,0,0.007s-0.012,0.017-0.02-0.023
									c0,0-0.002-0.029,0.023-0.041c0.01-0.002,0.018-0.002,0.023,0.003S14.021,8.42,14.018,8.427z"/>
							</g>
						</g>
						<g>
							<g>
								<g>
									<path fill="#053C5B" d="M13.451,7.146c0.148,0.111,0.262,0.277,0.299,0.468c0.037,0.162,0.033,0.425-0.141,0.511
										c-0.139,0.07-0.305-0.021-0.379-0.151c-0.08-0.138-0.098-0.305-0.094-0.467c0.006-0.131,0.014-0.303,0.131-0.385
										C13.324,7.08,13.387,7.098,13.451,7.146z"/>
								</g>
								<g>
									<path fill="#FFFFFF" d="M13.75,7.646c0.055,0.23-0.027,0.452-0.189,0.496c-0.162,0.042-0.338-0.109-0.391-0.34
										c-0.057-0.229,0.027-0.45,0.189-0.492C13.518,7.265,13.693,7.417,13.75,7.646z"/>
								</g>
								<g>
									<ellipse fill="#0E6FAE" cx="13.493" cy="7.923" rx="0.226" ry="0.22"/>
								</g>
								<g>
									<path fill="#0E0E0E" d="M13.699,7.965c0,0.096-0.09,0.177-0.197,0.177s-0.193-0.081-0.193-0.177
										c0-0.102,0.086-0.181,0.193-0.181S13.699,7.863,13.699,7.965z"/>
								</g>
								<g>
									<circle fill="#FFFFFF" cx="13.628" cy="7.838" r="0.048"/>
								</g>
							</g>
							<g>
								<g>
									<path fill="#053C5B" d="M14.299,7.146c-0.148,0.111-0.264,0.277-0.303,0.468c-0.033,0.162-0.029,0.425,0.143,0.511
										c0.141,0.07,0.305-0.021,0.381-0.151c0.078-0.138,0.1-0.305,0.092-0.467c-0.004-0.131-0.014-0.303-0.127-0.385
										C14.428,7.08,14.359,7.098,14.299,7.146z"/>
								</g>
								<g>
									<path fill="#FFFFFF" d="M14,7.646c-0.055,0.23,0.031,0.452,0.188,0.496c0.164,0.042,0.34-0.109,0.396-0.34
										c0.055-0.229-0.031-0.45-0.193-0.492C14.232,7.265,14.055,7.417,14,7.646z"/>
								</g>
								<g>
									<ellipse fill="#0E6FAE" cx="14.258" cy="7.923" rx="0.227" ry="0.22"/>
								</g>
								<g>
									<path fill="#0E0E0E" d="M14.051,7.965c0,0.096,0.09,0.177,0.195,0.177s0.195-0.081,0.195-0.177
										c0-0.102-0.09-0.181-0.195-0.181S14.051,7.863,14.051,7.965z"/>
								</g>
								<g>
									<path fill="#FFFFFF" d="M14.076,7.838c0,0.029,0.021,0.049,0.045,0.049c0.029,0,0.047-0.02,0.047-0.049
										c0-0.026-0.018-0.046-0.047-0.046C14.098,7.792,14.076,7.812,14.076,7.838z"/>
								</g>
							</g>
						</g>
						<g>
							<g>
								<g>
									<path fill="#0C4D73" d="M13.334,9.599c0,0,0.098,0.078,0.176,0.047c0,0,0.008,0.051-0.039,0.077h-0.066
										C13.404,9.723,13.367,9.713,13.334,9.599z"/>
								</g>
								<g>
									<path fill="#0C4D73" d="M14.395,9.605c0,0-0.096,0.076-0.178,0.046c0,0-0.006,0.05,0.041,0.078h0.066
										C14.324,9.729,14.359,9.72,14.395,9.605z"/>
								</g>
							</g>
							<g>
								<g>
									<path fill="#F9C735" d="M13.4,9.713c0.004-0.004,0.023,0.094,0.02,0.1c-0.006,0.047-0.039,0.056-0.076,0.063
										c-0.029,0.006-0.088,0.009-0.105,0.039c-0.033,0.047,0.023,0.088,0.066,0.066c0,0,0.127,0.131,0.146-0.033
										c0,0,0.09,0.012,0.047-0.076c0,0-0.033-0.02-0.027-0.06c0,0,0-0.073-0.014-0.1C13.443,9.682,13.4,9.713,13.4,9.713z"/>
								</g>
								<g>
									<path fill="#F9C735" d="M14.324,9.72c-0.006-0.003-0.02,0.095-0.02,0.103c0.006,0.044,0.041,0.055,0.08,0.063
										c0.027,0.005,0.084,0.009,0.104,0.038c0.031,0.048-0.025,0.089-0.066,0.067c0,0-0.129,0.133-0.148-0.034
										c0,0-0.088,0.013-0.041-0.074c0,0,0.027-0.021,0.021-0.06c0,0,0-0.074,0.016-0.103C14.281,9.692,14.324,9.72,14.324,9.72z"
										/>
								</g>
							</g>
						</g>
						<g>
							<defs>
								<path id="SVGID_138_" d="M14.287,6.842V6.84c0,0-0.006,0-0.008,0c-0.014-0.006-0.025-0.008-0.035-0.011
									c-0.025-0.018,0.006-0.044,0.006-0.044l0.057-0.122l-0.074,0.053c-0.018,0.011-0.105,0.084-0.117,0.037
									c-0.012-0.039,0.02-0.101,0.037-0.137c0.027-0.048,0.057-0.088,0.063-0.146c0.004-0.033,0-0.099-0.049-0.069
									c-0.051,0.033-0.076,0.124-0.092,0.183c-0.01,0.038-0.012,0.077-0.031,0.111C14.031,6.708,14,6.753,13.99,6.719
									c0-0.005-0.002-0.008-0.002-0.016c-0.008-0.057-0.01-0.21-0.01-0.21c-0.002-0.039-0.033-0.236-0.082-0.232
									c-0.078,0.004-0.098,0.085-0.074,0.152c0.025,0.061,0.049,0.118,0.076,0.18c0.012,0.023,0.025,0.128-0.027,0.071
									c-0.031-0.036-0.053-0.097-0.084-0.139c-0.037-0.047-0.066-0.092-0.102-0.136c-0.102-0.117-0.131-0.016-0.131-0.016
									c-0.006,0.012,0.045,0.07,0.053,0.08c0.025,0.036,0.053,0.069,0.08,0.104c0.021,0.024,0.041,0.045,0.061,0.072
									c0.014,0.019,0.082,0.122,0.014,0.095c-0.041-0.018-0.074-0.059-0.109-0.091c-0.027-0.025-0.057-0.056-0.082-0.079
									c-0.029-0.027-0.072-0.063-0.109-0.079c-0.047-0.014-0.063,0.026-0.033,0.063c0.025,0.042,0.074,0.064,0.113,0.098
									c0.014,0.013,0.123,0.074,0.09,0.103c-0.027,0.021-0.07-0.021-0.094-0.019c-0.084,0.009,0.01,0.055,0.014,0.095
									c-0.613,0.155-1.068,0.74-1.068,1.438c0,0.817,0.623,1.479,1.389,1.479c0.773,0,1.396-0.661,1.396-1.479
									C15.268,7.589,14.855,7.028,14.287,6.842z"/>
							</defs>
							<clipPath id="SVGID_1_">
								<use xlink:href="#SVGID_138_"  overflow="visible"/>
							</clipPath>
							<g clip-path="url(#SVGID_1_)">
								<path fill="#115E8F" d="M13.223,8.732c0,0,0.602,0.386,1.301,0L14.52,8.744c0,0.006,0,0.016,0,0.024
									c0,0.015,0,0.026,0,0.042c0,0.018,0,0.034,0.004,0.055c0.002,0.018,0.004,0.038,0.008,0.058
									c0.006,0.021,0.01,0.039,0.014,0.062c0.006,0.02,0.014,0.041,0.021,0.06c0.008,0.021,0.02,0.042,0.031,0.059
									c0.012,0.019,0.027,0.034,0.047,0.047c0.018,0.016,0.037,0.035,0.053,0.049c0.02,0.008,0.039,0.016,0.059,0.022
									c0.012,0.007,0.021,0.011,0.035,0.014c0.012,0.003,0.029,0.003,0.037-0.011c0.006-0.005,0.006-0.019,0.006-0.029
									l-0.01-0.054c0,0,0.037,0.009,0.078,0.013c0,0,0.014,0.004,0.016-0.042V9.086c0,0,0.064,0.015,0.1,0.015l-0.123,0.668
									L14.27,9.852c0,0-0.412,0.013-0.42,0.013c-0.01,0-0.477-0.039-0.477-0.039s-0.178-0.015-0.189-0.019
									c-0.008-0.007-0.129-0.054-0.141-0.071c-0.014-0.016-0.08-0.088-0.08-0.099c0-0.012-0.057-0.092-0.057-0.092
									s-0.018-0.079-0.025-0.099s-0.113-0.118-0.119-0.126c-0.006-0.009-0.057-0.09-0.057-0.09L12.66,9.083l0.111,0.026
									c0,0,0.025-0.001,0.059-0.009c0,0,0,0.036,0.014,0.057c0,0,0.039,0.023,0.1-0.011c0,0-0.049,0.052-0.01,0.084
									c0,0,0.039,0.042,0.172-0.07C13.105,9.16,13.262,8.926,13.223,8.732z"/>
							</g>
						</g>
						<g>
							<path fill="#3696D2" d="M13.094,8.194c0.008,0.026,0.016,0.054,0.025,0.079c0.008,0.025,0.018,0.053,0.025,0.08
								c0.006,0.025,0.016,0.053,0.025,0.08l0.01,0.04c0.004,0.016,0.004,0.027,0.008,0.039c0.004,0.029,0.01,0.057,0.02,0.085
								c0,0.016,0,0.028,0.004,0.043c0.002,0.007,0.004,0.013,0.004,0.02l0.004,0.022c0.002,0.026,0.004,0.057,0.004,0.086
								c0.002,0.015,0.002,0.029,0.002,0.043s0,0.028-0.002,0.042c0,0.029-0.002,0.059-0.008,0.087l-0.002,0.021l-0.006,0.022
								c-0.002,0.015-0.01,0.026-0.012,0.043c-0.004,0.001-0.004,0.005-0.004,0.008l-0.004,0.012l-0.004,0.021L13.18,9.07v0.003
								l-0.004,0.005l-0.002,0.008c-0.004,0.007-0.006,0.015-0.012,0.022c-0.014,0.023-0.029,0.048-0.049,0.071
								C13.1,9.2,13.08,9.224,13.057,9.239c-0.014,0.011-0.025,0.016-0.041,0.021c-0.014,0.007-0.025,0.01-0.043,0.008
								c-0.004,0-0.01,0-0.01,0l-0.006-0.001h-0.004l0,0l-0.002-0.004l0,0h-0.004c0,0-0.008,0-0.01-0.003
								c-0.006-0.005-0.01-0.007-0.014-0.011c-0.006-0.011-0.012-0.02-0.014-0.031c0-0.013,0-0.02,0-0.029
								c0.008-0.016,0.008-0.027,0.014-0.043c0.008-0.012,0.01-0.025,0.014-0.037l0.025,0.018c-0.004,0.008-0.01,0.013-0.02,0.02
								c0,0-0.006,0.003-0.006,0.007c-0.006,0-0.01,0.004-0.014,0.009c0,0-0.006,0.004-0.012,0.004c-0.002,0-0.006,0.004-0.01,0.007
								c-0.002,0-0.004,0.001-0.008,0.001l-0.006,0.004l-0.002,0.001L12.883,9.18c-0.002,0.001-0.002,0.001-0.006,0.001
								c-0.008,0.002-0.012,0.002-0.016,0c-0.006-0.001-0.014-0.003-0.02-0.008c-0.004-0.007-0.006-0.011-0.006-0.017
								C12.83,9.149,12.83,9.146,12.83,9.14c0-0.01,0-0.019,0-0.028c0-0.009,0.006-0.019,0.006-0.025l0.012,0.01
								c-0.01,0.005-0.023,0.011-0.035,0.014c-0.014,0.002-0.025,0.005-0.037,0.005c-0.004,0-0.006,0-0.008,0
								c-0.006,0-0.008-0.003-0.012-0.003s-0.006,0-0.01-0.002c-0.004-0.001-0.004-0.003-0.008-0.007
								c-0.002-0.002-0.004-0.006-0.006-0.01c0-0.002,0-0.003,0-0.003c0-0.004,0-0.004,0-0.007c0,0,0-0.002,0-0.005
								c0-0.002,0-0.002,0-0.005s0-0.009,0-0.009s0,0.006,0,0.009s0,0.003,0,0.005c0,0.003,0,0.005,0.002,0.005
								c0,0.003,0,0.003,0,0.003c0,0.004,0,0.004,0.002,0.005c0.002,0.002,0.002,0.005,0.006,0.008c0,0.002,0.004,0.002,0.008,0.002
								c0,0.002,0,0.002,0,0.002h0.006c0.006,0,0.008,0,0.008,0c0.006,0,0.008,0,0.012,0c0.01-0.002,0.021-0.004,0.031-0.01
								c0.014-0.003,0.023-0.01,0.031-0.015c0.006-0.002,0.01-0.002,0.018,0.005v0.003l0,0c0,0.01-0.004,0.021-0.004,0.025
								c0,0.01,0,0.019,0.004,0.025c0,0.004,0,0.007,0,0.01c0.002,0.003,0.002,0.003,0.004,0.005l0.004,0.002
								c0.002,0,0.004,0,0.01-0.002c0,0,0.002,0,0.004-0.002h0.004l0,0l0,0l0,0l0,0l0,0l0,0h0.002l0,0l0.004-0.003
								c0,0,0.002,0,0.004-0.003c0.004-0.001,0.008-0.003,0.01-0.004c0.002-0.003,0.006-0.005,0.01-0.008
								c0-0.002,0.008-0.005,0.008-0.008c0.002,0,0.006-0.003,0.01-0.006c0.006-0.007,0.01-0.012,0.016-0.018
								c0.008-0.008,0.016-0.008,0.021,0s0.008,0.014,0.004,0.021l0,0c-0.006,0.014-0.01,0.025-0.01,0.041
								c-0.006,0.011-0.008,0.024-0.012,0.036c0,0.002,0,0.008,0,0.016c0.004,0.005,0.006,0.006,0.006,0.006l0.004,0.001l0,0v0.003
								l0,0l0,0h0.002l0,0l0,0l0,0c0.004,0,0,0,0,0l0,0h0.004h0.002h0.008c0.021,0,0.043-0.01,0.061-0.023
								c0.016-0.014,0.033-0.034,0.049-0.054c0.016-0.022,0.031-0.04,0.041-0.063c0.002-0.007,0.006-0.013,0.01-0.019l0.004-0.007
								V9.05V9.047h0.004l0.004-0.019l0.006-0.01c0-0.002,0-0.005,0-0.008c0.006-0.014,0.008-0.026,0.014-0.041l0.006-0.018V8.932
								c0.006-0.025,0.01-0.053,0.01-0.08c0.004-0.012,0.004-0.026,0.004-0.041c0-0.013,0-0.027,0-0.042
								c0-0.024-0.004-0.053-0.006-0.083l-0.002-0.018c0-0.008,0-0.016,0-0.021c-0.002-0.015-0.004-0.026-0.006-0.042
								c0-0.027-0.008-0.056-0.012-0.082c-0.002-0.013-0.004-0.028-0.008-0.041L13.145,8.44c-0.008-0.028-0.012-0.056-0.02-0.084
								l-0.006-0.039l-0.01-0.042C13.105,8.248,13.1,8.223,13.094,8.194z"/>
						</g>
						<g>
							<path fill="#3696D2" d="M14.646,8.189c-0.006,0.026-0.012,0.054-0.02,0.082l-0.008,0.041l-0.01,0.041
								c-0.002,0.027-0.012,0.053-0.016,0.082l-0.008,0.039c-0.002,0.015-0.008,0.028-0.008,0.041
								c-0.004,0.027-0.01,0.057-0.012,0.082c-0.002,0.016-0.006,0.028-0.006,0.043c0,0.007-0.002,0.013-0.002,0.02l-0.004,0.022
								c0,0.026-0.002,0.054-0.002,0.082c0,0.014,0,0.028,0,0.04c0,0.015,0,0.027,0.002,0.04c0,0.027,0.004,0.055,0.01,0.081
								l0.002,0.021l0.006,0.019c0.004,0.016,0.006,0.025,0.012,0.039c0.002,0.002,0.004,0.007,0.004,0.01l0.002,0.009l0.008,0.019
								l0,0v0.003l0.004,0.006l0.006,0.01c0,0.005,0.004,0.011,0.008,0.017c0.01,0.022,0.025,0.045,0.043,0.064
								c0.016,0.021,0.035,0.04,0.053,0.054c0.021,0.016,0.041,0.025,0.063,0.025c0.004,0,0.004,0,0.008,0l0.002-0.001h0.004l0,0
								h-0.004h0.004l0,0h0.004l0,0l0,0l0,0c0,0,0,0,0.002,0V9.217c0.002-0.003,0.002-0.003,0.002-0.003
								c0.002,0,0.002-0.003,0.004-0.009c0-0.005,0-0.007,0-0.016c-0.002-0.009-0.004-0.023-0.008-0.036
								c-0.008-0.013-0.01-0.023-0.014-0.035V9.114c-0.002-0.008,0-0.019,0.01-0.023c0.008-0.001,0.012-0.001,0.018,0.005
								c0.006,0.005,0.012,0.011,0.018,0.016c0.002,0.003,0.006,0.007,0.008,0.01c0.004,0.002,0.008,0.003,0.01,0.003
								c0.004,0.006,0.008,0.008,0.01,0.01c0.006,0.001,0.008,0.003,0.01,0.006c0.002,0,0.004,0.001,0.004,0.001h0.004v0.002
								l0.002,0.001l0,0l0,0l0,0l0,0l0,0h0.002c0.002,0.003,0.004,0.003,0.004,0.003h0.004c0.004,0,0.008,0,0.008,0s0.004,0,0.008,0
								c0,0,0-0.004,0.002-0.006s0.002-0.006,0.002-0.009c0.004-0.008,0.004-0.014,0.004-0.023s-0.004-0.019-0.004-0.025l0,0
								c0-0.007,0.004-0.013,0.01-0.013h0.006c0.01,0.008,0.021,0.013,0.033,0.016c0.012,0.005,0.023,0.01,0.035,0.013
								c0,0,0.01,0,0.012,0c0,0,0.002,0,0.006,0c0,0,0.002,0,0.006,0V9.097c0.004-0.001,0.008-0.004,0.012-0.006
								c0-0.001,0.004-0.001,0.004-0.005c0,0,0.004-0.003,0.006-0.003V9.078c0-0.002,0-0.005,0-0.008c0,0,0,0,0-0.002
								c0-0.004,0-0.009,0-0.011c0,0.002,0.002,0.006,0.002,0.011c0,0.002,0,0.002,0,0.005c0,0,0,0.003,0,0.005l-0.002,0.005
								c0,0.003,0,0.003,0,0.003c0,0.005-0.006,0.007-0.006,0.011c-0.004,0.004-0.008,0.004-0.012,0.006
								c-0.004,0-0.004,0.004-0.008,0.004c-0.004,0.002-0.008,0.003-0.008,0.003c-0.002,0-0.01,0-0.012,0
								c-0.012,0-0.025-0.003-0.039-0.007c-0.014-0.002-0.027-0.007-0.037-0.013l0.012-0.012c0,0.008,0.004,0.019,0.004,0.028
								c0.002,0.008,0.002,0.018,0.002,0.028c0,0.005-0.002,0.012-0.006,0.015c0,0.007-0.002,0.013-0.01,0.017
								c-0.002,0.004-0.01,0.008-0.018,0.008c-0.004,0.003-0.012,0.001-0.014,0c-0.004,0-0.006,0-0.01-0.001
								c-0.002,0-0.002,0-0.004,0h-0.002l-0.004-0.004C14.85,9.166,14.85,9.166,14.85,9.166c-0.006,0-0.01-0.001-0.014-0.004
								c-0.006-0.005-0.008-0.006-0.014-0.009c-0.002-0.002-0.006-0.004-0.012-0.007c-0.002-0.003-0.006-0.006-0.008-0.007
								c-0.008-0.005-0.012-0.013-0.021-0.016l0.027-0.021c0.008,0.012,0.012,0.024,0.016,0.038c0.006,0.013,0.01,0.028,0.014,0.046
								c0,0.008,0.002,0.017,0,0.027c0,0.007-0.004,0.021-0.014,0.03c-0.002,0.002-0.008,0.007-0.014,0.011
								c-0.002,0.001-0.012,0.006-0.012,0.006h-0.002l0,0h-0.002l0,0l-0.002,0.001l-0.01,0.002c-0.002,0-0.006,0-0.008,0
								c-0.018,0-0.031-0.003-0.051-0.009c-0.012-0.005-0.027-0.015-0.037-0.021c-0.027-0.016-0.047-0.037-0.063-0.062
								c-0.021-0.021-0.037-0.049-0.051-0.072c-0.006-0.005-0.008-0.011-0.012-0.018L14.559,9.07l-0.004-0.002V9.064l-0.002-0.002
								l-0.008-0.021l-0.004-0.01c0-0.004,0-0.008-0.002-0.011c-0.004-0.015-0.008-0.028-0.012-0.043l-0.004-0.021l-0.006-0.023
								c-0.006-0.027-0.006-0.055-0.012-0.085c0-0.013,0-0.028,0-0.044s0-0.026,0-0.043c0.006-0.029,0.006-0.056,0.01-0.085
								l0.004-0.021c0-0.009,0-0.014,0.004-0.021c0-0.013,0.004-0.027,0.008-0.042c0.004-0.027,0.01-0.053,0.014-0.083
								c0.006-0.014,0.008-0.028,0.01-0.042l0.012-0.039c0.008-0.029,0.02-0.053,0.025-0.081c0.01-0.027,0.018-0.054,0.027-0.079
								C14.627,8.24,14.639,8.216,14.646,8.189z"/>
						</g>
					</g>
					<g>
						<g>
							<path fill="#0C4D73" d="M20.258,7.993L20.258,7.993c-0.002-0.002-0.006-0.002-0.008-0.002
								c-0.012-0.002-0.025-0.009-0.037-0.012c-0.02-0.015,0.008-0.044,0.008-0.044l0.057-0.122l-0.074,0.055
								c-0.02,0.01-0.107,0.083-0.119,0.038c-0.008-0.039,0.023-0.104,0.043-0.136c0.023-0.049,0.053-0.092,0.059-0.147
								c0.008-0.035,0-0.101-0.045-0.07c-0.053,0.034-0.076,0.123-0.094,0.181c-0.012,0.04-0.012,0.078-0.033,0.112
								c-0.01,0.013-0.045,0.062-0.051,0.022c-0.004-0.001-0.004-0.007-0.004-0.015c-0.006-0.056-0.01-0.209-0.01-0.209
								c-0.002-0.038-0.033-0.235-0.084-0.232c-0.076,0.005-0.096,0.084-0.072,0.15c0.025,0.064,0.055,0.121,0.076,0.18
								c0.014,0.024,0.027,0.128-0.021,0.074c-0.037-0.036-0.059-0.098-0.09-0.139c-0.031-0.047-0.066-0.095-0.104-0.135
								c-0.096-0.12-0.127-0.021-0.127-0.021c-0.008,0.016,0.045,0.071,0.053,0.081c0.023,0.039,0.051,0.072,0.08,0.104
								c0.02,0.025,0.041,0.049,0.059,0.072c0.014,0.021,0.082,0.127,0.016,0.098c-0.043-0.02-0.076-0.061-0.111-0.093
								c-0.025-0.023-0.053-0.054-0.082-0.077c-0.029-0.026-0.07-0.065-0.109-0.079c-0.045-0.016-0.061,0.025-0.033,0.061
								c0.027,0.043,0.076,0.067,0.113,0.1c0.016,0.013,0.119,0.074,0.088,0.102c-0.025,0.02-0.064-0.022-0.092-0.017
								C19.426,7.882,19.52,7.928,19.52,7.97c-0.611,0.154-1.066,0.736-1.066,1.437c0,0.817,0.625,1.478,1.395,1.478
								c0.766,0,1.391-0.66,1.391-1.478C21.238,8.742,20.824,8.18,20.258,7.993z"/>
						</g>
						<g>
							<g>
								<path fill="#18668F" d="M19.938,9.896c0.043-0.021,0.08-0.053,0.117-0.079c0.057-0.044,0.113-0.088,0.154-0.155
									c0,0,0.057-0.111-0.105-0.194c-0.15-0.081-0.342-0.106-0.504-0.038c-0.059,0.028-0.123,0.063-0.162,0.125
									c-0.039,0.057,0.004,0.125,0.047,0.165c0.047,0.042,0.096,0.08,0.146,0.112c0.07,0.045,0.145,0.102,0.227,0.091
									C19.885,9.92,19.914,9.91,19.938,9.896z"/>
							</g>
							<g>
								<path fill="#429DD6" d="M19.939,9.831c0.045-0.019,0.082-0.045,0.121-0.069c0.057-0.039,0.113-0.077,0.152-0.136
									c0,0,0.063-0.096-0.104-0.168c-0.156-0.071-0.352-0.094-0.512-0.034c-0.063,0.023-0.127,0.054-0.168,0.108
									c-0.039,0.052,0.002,0.107,0.045,0.146c0.045,0.035,0.1,0.069,0.148,0.096c0.074,0.04,0.148,0.089,0.234,0.078
									C19.885,9.852,19.914,9.84,19.939,9.831z"/>
							</g>
						</g>
						<g>
							<g>
								<path fill="#135B84" d="M19.672,9.579c0,0,0,0,0.002,0c0,0.005,0.006,0.008,0.008,0.01c0.006,0.003,0.01,0.009,0.012,0.01
									c0.004,0.007,0.008,0.008,0.012,0.013c0,0.003,0,0.005,0.004,0.007c0,0.001,0,0.005,0,0.005s0.014,0.017,0.018-0.021
									c0,0,0.002-0.029-0.021-0.04c-0.008-0.003-0.018-0.003-0.025,0C19.674,9.564,19.668,9.572,19.672,9.579z"/>
							</g>
							<g>
								<path fill="#135B84" d="M19.99,9.579c0,0,0,0-0.002,0c-0.002,0.005-0.004,0.008-0.012,0.01
									c-0.002,0.003-0.008,0.009-0.01,0.01c-0.008,0.007-0.01,0.008-0.012,0.013c-0.002,0.003-0.002,0.005-0.002,0.007v0.005
									c0,0-0.016,0.017-0.018-0.021c0,0-0.008-0.029,0.021-0.04c0.006-0.003,0.016-0.003,0.023,0
									C19.984,9.564,19.992,9.572,19.99,9.579z"/>
							</g>
						</g>
						<g>
							<g>
								<g>
									<path fill="#053C5B" d="M19.422,8.296c0.15,0.11,0.266,0.28,0.305,0.469c0.031,0.162,0.031,0.425-0.145,0.511
										c-0.137,0.069-0.303-0.021-0.381-0.151c-0.082-0.138-0.096-0.305-0.09-0.466c0.002-0.132,0.014-0.306,0.127-0.387
										C19.295,8.231,19.359,8.248,19.422,8.296z"/>
								</g>
								<g>
									<path fill="#FFFFFF" d="M19.723,8.798c0.055,0.229-0.031,0.452-0.188,0.492c-0.164,0.045-0.338-0.105-0.396-0.337
										c-0.055-0.229,0.033-0.45,0.191-0.493C19.488,8.416,19.664,8.567,19.723,8.798z"/>
								</g>
								<g>
									<path fill="#0E6FAE" d="M19.691,9.073c0,0.124-0.102,0.223-0.227,0.223c-0.127,0-0.227-0.099-0.227-0.223
										c0-0.12,0.1-0.222,0.227-0.222C19.59,8.852,19.691,8.953,19.691,9.073z"/>
								</g>
								<g>
									<ellipse fill="#0E0E0E" cx="19.477" cy="9.114" rx="0.195" ry="0.182"/>
								</g>
								<g>
									<circle fill="#FFFFFF" cx="19.598" cy="8.99" r="0.047"/>
								</g>
							</g>
							<g>
								<g>
									<path fill="#053C5B" d="M20.271,8.296c-0.148,0.11-0.264,0.28-0.303,0.469c-0.033,0.162-0.031,0.425,0.143,0.511
										c0.141,0.069,0.305-0.021,0.379-0.151c0.082-0.138,0.1-0.305,0.092-0.466c-0.004-0.132-0.014-0.306-0.129-0.387
										C20.396,8.231,20.332,8.248,20.271,8.296z"/>
								</g>
								<g>
									<path fill="#FFFFFF" d="M19.973,8.798C19.914,9.027,20,9.25,20.162,9.29c0.16,0.045,0.334-0.105,0.395-0.337
										c0.055-0.229-0.031-0.45-0.195-0.493C20.203,8.416,20.027,8.567,19.973,8.798z"/>
								</g>
								<g>
									<path fill="#0E6FAE" d="M20.002,9.073c0,0.124,0.104,0.223,0.229,0.223c0.121,0,0.223-0.099,0.223-0.223
										c0-0.12-0.102-0.222-0.223-0.222C20.105,8.852,20.002,8.953,20.002,9.073z"/>
								</g>
								<g>
									<ellipse fill="#0E0E0E" cx="20.217" cy="9.114" rx="0.195" ry="0.182"/>
								</g>
								<g>
									<circle fill="#FFFFFF" cx="20.095" cy="8.99" r="0.048"/>
								</g>
							</g>
						</g>
						<g>
							<g>
								<g>
									<path fill="#0C4D73" d="M19.309,10.752c0,0,0.092,0.073,0.176,0.044c0,0,0.004,0.051-0.039,0.079h-0.068
										C19.377,10.875,19.338,10.865,19.309,10.752z"/>
								</g>
								<g>
									<path fill="#0C4D73" d="M20.365,10.759c0,0-0.094,0.073-0.178,0.041c0,0-0.006,0.053,0.043,0.081h0.066
										C20.297,10.881,20.334,10.871,20.365,10.759z"/>
								</g>
							</g>
							<g>
								<g>
									<path fill="#F9C735" d="M19.371,10.864c0.006-0.003,0.021,0.091,0.021,0.1c-0.006,0.044-0.037,0.058-0.076,0.064
										c-0.031,0.002-0.088,0.009-0.105,0.037c-0.035,0.048,0.025,0.089,0.064,0.067c0,0,0.125,0.132,0.148-0.034
										c0,0,0.088,0.013,0.041-0.075c0,0-0.027-0.019-0.02-0.06c0,0,0-0.072-0.016-0.1C19.416,10.835,19.371,10.864,19.371,10.864
										z"/>
								</g>
								<g>
									<path fill="#F9C735" d="M20.297,10.872c-0.006-0.003-0.021,0.092-0.02,0.101c0.004,0.045,0.037,0.056,0.074,0.064
										c0.033,0.004,0.088,0.009,0.105,0.036c0.035,0.048-0.021,0.09-0.064,0.069c0,0-0.125,0.131-0.148-0.036
										c0,0-0.086,0.015-0.041-0.076c0,0,0.031-0.017,0.021-0.058c0,0,0-0.072,0.018-0.101
										C20.252,10.845,20.297,10.872,20.297,10.872z"/>
								</g>
							</g>
						</g>
						<g>
							<defs>
								<path id="SVGID_140_" d="M20.258,7.993L20.258,7.993c-0.002-0.002-0.006-0.002-0.008-0.002
									c-0.012-0.002-0.025-0.009-0.037-0.012c-0.02-0.015,0.008-0.044,0.008-0.044l0.057-0.122l-0.074,0.055
									c-0.02,0.01-0.107,0.083-0.119,0.038c-0.008-0.039,0.023-0.104,0.043-0.136c0.023-0.049,0.053-0.092,0.059-0.147
									c0.008-0.035,0-0.101-0.045-0.07c-0.053,0.034-0.076,0.123-0.094,0.181c-0.012,0.04-0.012,0.078-0.033,0.112
									c-0.01,0.013-0.045,0.062-0.051,0.022c-0.004-0.001-0.004-0.007-0.004-0.015c-0.006-0.056-0.01-0.209-0.01-0.209
									c-0.002-0.038-0.033-0.235-0.084-0.232c-0.076,0.005-0.096,0.084-0.072,0.15c0.025,0.064,0.055,0.121,0.076,0.18
									c0.014,0.024,0.027,0.128-0.021,0.074c-0.037-0.036-0.059-0.098-0.09-0.139c-0.031-0.047-0.066-0.095-0.104-0.135
									c-0.096-0.12-0.127-0.021-0.127-0.021c-0.008,0.016,0.045,0.071,0.053,0.081c0.023,0.039,0.051,0.072,0.08,0.104
									c0.02,0.025,0.041,0.049,0.059,0.072c0.014,0.021,0.082,0.127,0.016,0.098c-0.043-0.02-0.076-0.061-0.111-0.093
									c-0.025-0.023-0.053-0.054-0.082-0.077c-0.029-0.026-0.07-0.065-0.109-0.079c-0.045-0.016-0.061,0.025-0.033,0.061
									c0.027,0.043,0.076,0.067,0.113,0.1c0.016,0.013,0.119,0.074,0.088,0.102c-0.025,0.02-0.064-0.022-0.092-0.017
									C19.426,7.882,19.52,7.928,19.52,7.97c-0.611,0.154-1.066,0.736-1.066,1.437c0,0.817,0.625,1.478,1.395,1.478
									c0.766,0,1.391-0.66,1.391-1.478C21.238,8.742,20.824,8.18,20.258,7.993z"/>
							</defs>
							<clipPath id="SVGID_3_">
								<use xlink:href="#SVGID_140_"  overflow="visible"/>
							</clipPath>
							<g clip-path="url(#SVGID_3_)">
								<path fill="#115E8F" d="M19.193,9.885c0,0,0.604,0.385,1.301,0c-0.002,0-0.002,0.011-0.002,0.011
									c0,0.009,0,0.015-0.002,0.024c0,0.015,0,0.028,0,0.042c0,0.016,0.002,0.034,0.004,0.053c0.002,0.021,0.008,0.04,0.008,0.062
									c0.004,0.019,0.01,0.037,0.014,0.06c0.01,0.021,0.014,0.041,0.02,0.06c0.012,0.021,0.021,0.039,0.033,0.058
									c0.014,0.02,0.031,0.034,0.045,0.049c0.021,0.013,0.035,0.033,0.057,0.046c0.018,0.012,0.037,0.016,0.057,0.026
									c0.01,0.003,0.021,0.009,0.035,0.012c0.014,0.001,0.029,0.001,0.039-0.009c0.006-0.008,0.006-0.021,0.006-0.029l-0.01-0.056
									c0,0,0.033,0.008,0.078,0.014c0,0,0.012,0.004,0.012-0.045l0.002-0.023c0,0,0.066,0.016,0.104,0.016l-0.127,0.666
									l-0.623,0.082c0,0-0.414,0.017-0.422,0.017c-0.01,0-0.479-0.039-0.479-0.039s-0.176-0.017-0.186-0.023
									c-0.01-0.003-0.131-0.049-0.143-0.065c-0.014-0.018-0.08-0.091-0.08-0.103c0-0.011-0.059-0.089-0.059-0.089
									s-0.016-0.081-0.021-0.101c-0.01-0.018-0.113-0.117-0.119-0.124c-0.006-0.008-0.059-0.097-0.059-0.097l-0.045-0.144
									l0.113,0.026c0,0,0.025-0.001,0.059-0.007c0,0,0,0.034,0.012,0.057c0,0,0.041,0.023,0.104-0.012
									c0,0-0.051,0.051-0.014,0.079c0,0,0.043,0.045,0.174-0.064C19.078,10.313,19.236,10.077,19.193,9.885z"/>
							</g>
						</g>
						<g>
							<path fill="#3696D2" d="M19.068,9.345c0.006,0.028,0.016,0.055,0.023,0.079c0.008,0.027,0.018,0.054,0.023,0.08
								c0.01,0.026,0.02,0.055,0.023,0.08l0.01,0.042c0.008,0.014,0.008,0.027,0.012,0.042c0.006,0.025,0.012,0.054,0.016,0.082
								c0.004,0.016,0.006,0.029,0.008,0.041c0.002,0.007,0.002,0.016,0.004,0.021v0.02c0.006,0.031,0.006,0.058,0.01,0.088
								c0,0.015,0,0.028,0,0.045c0,0.013,0,0.026,0,0.04c-0.004,0.03-0.004,0.057-0.01,0.088l-0.002,0.021l-0.006,0.022
								c-0.004,0.013-0.008,0.028-0.014,0.041c0,0.005,0,0.008-0.002,0.013l-0.004,0.009l-0.01,0.02v0.003v0.003l-0.004,0.005
								l-0.002,0.012c-0.006,0.006-0.006,0.013-0.01,0.019c-0.016,0.024-0.029,0.05-0.051,0.07
								c-0.016,0.024-0.035,0.045-0.059,0.063c-0.01,0.008-0.023,0.016-0.037,0.019c-0.014,0.007-0.027,0.01-0.043,0.01
								c-0.004,0-0.01,0-0.012,0l-0.008-0.002l-0.002-0.001l0,0h-0.002l0,0l0,0c0,0-0.008-0.004-0.014-0.007
								s-0.012-0.007-0.014-0.011c-0.004-0.008-0.012-0.023-0.012-0.03c0-0.011,0-0.018,0-0.027c0.002-0.016,0.008-0.03,0.014-0.043
								c0.006-0.017,0.01-0.027,0.012-0.04l0.027,0.02c-0.006,0.004-0.012,0.012-0.018,0.019c-0.002,0.002-0.008,0.004-0.01,0.005
								c-0.006,0.003-0.01,0.007-0.012,0.01c-0.004,0.002-0.006,0.004-0.012,0.006c-0.002,0.001-0.01,0.003-0.01,0.006
								c-0.004,0.002-0.008,0.002-0.008,0.003l-0.008,0.002h-0.004l0,0c-0.002,0.004-0.004,0.004-0.008,0.004
								c-0.006,0-0.01,0-0.014,0c-0.006-0.002-0.012-0.005-0.02-0.01c-0.004-0.005-0.01-0.009-0.01-0.015
								c-0.002-0.007-0.002-0.011-0.002-0.017c0-0.01,0-0.02,0-0.03c0-0.009,0.002-0.016,0.002-0.027l0.018,0.014
								c-0.014,0.005-0.027,0.009-0.037,0.012c-0.012,0.006-0.023,0.006-0.039,0.006c-0.004,0-0.004,0-0.008,0s-0.006,0-0.01,0
								c-0.004-0.004-0.006-0.004-0.008-0.005c-0.004-0.002-0.008-0.004-0.012-0.008c0,0-0.004-0.005-0.004-0.007
								c0-0.005,0-0.006,0-0.006c-0.002-0.003-0.002-0.004-0.002-0.007c0-0.001,0-0.002,0-0.003c0-0.003,0-0.003,0-0.006
								c0-0.004,0-0.007,0.002-0.01c0,0.003,0,0.006,0,0.01c0,0.003,0,0.003,0,0.006c0,0.001,0,0.002,0,0.002
								c0,0.002,0,0.004,0,0.005c0.004,0.003,0.004,0.003,0.004,0.003c0,0.006,0.004,0.008,0.004,0.01
								c0.004,0.003,0.004,0.003,0.01,0.003h0.002c0.004,0.004,0.004,0.004,0.004,0.004c0.004,0,0.008,0,0.008,0
								c0.006,0,0.006,0,0.008,0c0.014-0.004,0.025-0.007,0.037-0.011c0.012-0.006,0.021-0.012,0.031-0.016
								c0.002-0.003,0.01-0.003,0.01,0.002c0,0.001,0,0.002,0,0.005v0.003c0,0.008,0,0.017,0,0.025s0,0.017,0,0.021
								c0.002,0.005,0.006,0.008,0.006,0.011c0.002,0.002,0.002,0.004,0.002,0.004c0.004,0.001,0.004,0.001,0.004,0.001
								c0.004,0,0.006,0,0.01,0l0.004-0.001h0.004l0.002-0.002l0,0c0,0,0.002,0,0,0l0,0l0,0l0,0h0.002l0,0v-0.002
								c0.002,0,0.004,0,0.006,0c0.006-0.003,0.006-0.006,0.01-0.011c0.004,0,0.008,0,0.01-0.004
								c0.002-0.001,0.004-0.004,0.01-0.007c0-0.002,0.004-0.004,0.006-0.007c0.006-0.004,0.012-0.011,0.021-0.017
								c0.004-0.007,0.016-0.007,0.023,0c0.002,0.006,0.004,0.013,0,0.02l0,0c-0.006,0.015-0.008,0.027-0.012,0.04
								c-0.006,0.012-0.008,0.024-0.008,0.035c0,0.006,0,0.012,0,0.016c0,0.006,0,0.008,0,0.008c0.002,0,0.004,0.002,0.004,0.002
								v0.001h0.002l0,0l0,0h0.002l0,0h0.004l0,0l0,0l0,0l0,0l0.002,0.003c0.006,0,0.008,0,0.008,0c0.021,0,0.041-0.011,0.059-0.024
								c0.02-0.016,0.037-0.034,0.051-0.053c0.016-0.021,0.031-0.043,0.041-0.067c0.006-0.005,0.008-0.012,0.012-0.017l0.004-0.009
								l0.002-0.006V10.2l0.002-0.002l0.004-0.018l0.002-0.01c0.004-0.004,0.006-0.007,0.006-0.011
								c0.004-0.012,0.006-0.024,0.01-0.036l0.004-0.021l0.006-0.019c0.002-0.026,0.004-0.054,0.006-0.081
								c0-0.013,0-0.026,0.006-0.041c0-0.014,0-0.026,0-0.039c-0.006-0.029-0.006-0.057-0.008-0.084l-0.002-0.021
								c0-0.008,0-0.015,0-0.021c0-0.014-0.002-0.026-0.002-0.041c-0.006-0.027-0.01-0.056-0.016-0.084
								c0-0.013-0.002-0.025-0.006-0.04l-0.008-0.041c-0.004-0.027-0.01-0.053-0.016-0.083l-0.01-0.04l-0.01-0.041
								C19.076,9.401,19.068,9.373,19.068,9.345z"/>
						</g>
						<g>
							<path fill="#3696D2" d="M20.617,9.341c-0.006,0.026-0.01,0.054-0.016,0.083l-0.01,0.04l-0.01,0.04
								c-0.004,0.028-0.014,0.056-0.018,0.083l-0.008,0.041c0,0.012-0.006,0.027-0.008,0.04c-0.002,0.028-0.01,0.055-0.014,0.082
								c0,0.016,0,0.029-0.006,0.041c0,0.007,0,0.016,0,0.021l-0.002,0.02c0,0.029-0.002,0.058-0.002,0.083c0,0.014,0,0.027,0,0.041
								c0,0.015,0.002,0.028,0.002,0.04c0,0.029,0.002,0.059,0.008,0.081l0.004,0.02l0.006,0.021
								c0.004,0.014,0.006,0.026,0.012,0.038c0,0.002,0,0.006,0.004,0.009l0.002,0.01l0.006,0.021v0.001c0,0,0,0,0.004,0.002
								l0.002,0.004l0.004,0.011c0,0.004,0.004,0.012,0.01,0.016c0.012,0.024,0.023,0.047,0.043,0.064
								c0.016,0.022,0.031,0.041,0.053,0.056c0.02,0.013,0.043,0.023,0.061,0.023c0.004,0,0.006,0,0.01,0V10.37l0.004-0.001h0.004
								c0,0-0.006,0.002-0.004,0.001l0,0l0.004-0.001h0.002l0,0l0,0l0,0l0,0v-0.003c0.002,0,0.002,0,0.002,0
								c0.004-0.003,0.004-0.004,0.004-0.008c0.004-0.005,0.004-0.011,0-0.016c0-0.01-0.004-0.024-0.006-0.037
								c-0.006-0.014-0.01-0.023-0.016-0.039v-0.001c-0.004-0.009,0-0.02,0.01-0.024c0.006-0.001,0.016,0,0.018,0.007
								c0.006,0.005,0.012,0.011,0.02,0.018c0.002,0,0.006,0.004,0.01,0.004c0.002,0.005,0.006,0.007,0.008,0.01
								s0.008,0.004,0.01,0.004c0.002,0.004,0.008,0.004,0.008,0.004c0,0.004,0.006,0.005,0.008,0.005l0.004,0.003l0,0l0,0l0,0l0,0
								l0,0l0,0l0,0l0.004,0.003h0.002c0,0,0,0,0.002,0c0.004,0.002,0.01,0.002,0.012,0.002s0.002-0.002,0.002-0.002
								c0.002,0,0.004-0.003,0.004-0.006c0-0.005,0.006-0.005,0.006-0.009c0-0.009,0-0.017,0-0.024c0-0.007,0-0.018,0-0.025v-0.001
								c0-0.005,0.002-0.009,0.006-0.009c0,0,0.004,0,0.008,0c0.008,0.007,0.02,0.01,0.033,0.017c0.01,0.003,0.02,0.008,0.035,0.01
								c0,0,0.006,0,0.01,0c0.002,0,0.006,0,0.006,0s0.004,0,0.006-0.002h0.004c0.004,0,0.006-0.002,0.006-0.005
								c0.004-0.002,0.006-0.003,0.01-0.007c0-0.002,0-0.003,0-0.004s0-0.001,0-0.004c0,0,0-0.002,0-0.005
								C21,10.224,21,10.221,21,10.218c0-0.002,0-0.006,0-0.01c0,0.004,0,0.008,0,0.01c0,0.003,0,0.006,0,0.006
								c0,0.003,0,0.004,0,0.007c0,0.001,0,0.002,0,0.002c0,0.002-0.004,0.005-0.004,0.005c0,0.004,0,0.009-0.004,0.011
								c-0.002,0.004-0.006,0.005-0.008,0.005c-0.004,0.004-0.008,0.006-0.012,0.006c0,0-0.006,0.001-0.008,0.001
								c-0.004,0-0.01,0.001-0.012,0.001c-0.014-0.001-0.027-0.002-0.039-0.008c-0.014-0.001-0.027-0.005-0.037-0.013l0.01-0.009
								c0.006,0.009,0.006,0.017,0.008,0.027c0,0.008,0,0.016,0,0.028c0,0.004,0,0.011-0.002,0.015
								c-0.006,0.007-0.006,0.013-0.014,0.016c-0.002,0.006-0.012,0.009-0.016,0.009c-0.004,0.001-0.014,0.001-0.016,0.001
								c-0.002-0.001-0.006-0.001-0.006-0.001c0-0.002-0.004-0.002-0.004-0.002l-0.002-0.001l-0.012-0.002
								c0-0.002-0.002-0.003-0.002-0.003c-0.004-0.001-0.012-0.004-0.016-0.006c-0.002-0.003-0.006-0.004-0.012-0.007
								c-0.004-0.003-0.004-0.006-0.012-0.006c-0.002-0.002-0.008-0.008-0.01-0.009c-0.008-0.008-0.012-0.012-0.02-0.017
								l0.027-0.021c0.006,0.013,0.01,0.026,0.016,0.039c0.006,0.014,0.01,0.029,0.014,0.045c0,0.011,0,0.017,0,0.026
								c0,0.011-0.004,0.022-0.014,0.031c-0.004,0.006-0.006,0.006-0.014,0.013c-0.002,0.001-0.01,0.004-0.014,0.004l0,0l0,0h-0.004
								l0,0h-0.002l-0.008,0.003c-0.002,0-0.008,0-0.012,0c-0.014,0.003-0.031-0.003-0.047-0.007
								c-0.014-0.007-0.029-0.013-0.041-0.021c-0.021-0.017-0.045-0.038-0.061-0.06c-0.021-0.024-0.035-0.047-0.049-0.073
								c-0.004-0.005-0.012-0.013-0.012-0.02l-0.006-0.01l-0.002-0.006v-0.002v-0.001l-0.012-0.021l-0.002-0.013
								c0-0.001-0.002-0.007-0.002-0.008c-0.006-0.017-0.01-0.029-0.016-0.045l-0.002-0.02l-0.008-0.022
								c0-0.028-0.004-0.057-0.006-0.086c0-0.015,0-0.029,0-0.045c0-0.014,0-0.028,0-0.041c0.002-0.03,0.006-0.058,0.006-0.087
								l0.004-0.021c0-0.007,0.002-0.016,0.004-0.021c0.002-0.013,0.002-0.027,0.008-0.041c0.004-0.028,0.01-0.057,0.014-0.083
								c0.004-0.015,0.01-0.025,0.012-0.043l0.012-0.04c0.008-0.026,0.018-0.052,0.023-0.081c0.012-0.024,0.02-0.052,0.029-0.078
								C20.6,9.394,20.611,9.367,20.617,9.341z"/>
						</g>
					</g>
					<g>
						<g>
							<path fill="#84B840" d="M17.682,5.217V5.212c-0.004,0-0.01,0-0.016-0.001c-0.021-0.006-0.043-0.013-0.064-0.02
								c-0.041-0.029,0.016-0.075,0.016-0.075l0.1-0.224L17.582,4.99c-0.033,0.019-0.189,0.151-0.211,0.068
								c-0.021-0.072,0.041-0.188,0.072-0.247c0.043-0.086,0.1-0.164,0.111-0.266c0.006-0.063-0.006-0.183-0.088-0.129
								c-0.094,0.062-0.141,0.225-0.168,0.335C17.283,4.818,17.283,4.89,17.24,4.95c-0.016,0.024-0.078,0.111-0.092,0.043
								c-0.002-0.007-0.004-0.015-0.004-0.027c-0.014-0.101-0.02-0.379-0.02-0.379c-0.002-0.07-0.061-0.427-0.15-0.42
								c-0.141,0.007-0.178,0.15-0.133,0.272c0.043,0.11,0.094,0.218,0.141,0.327c0.016,0.041,0.043,0.229-0.047,0.129
								c-0.061-0.067-0.102-0.174-0.158-0.251c-0.061-0.084-0.121-0.166-0.186-0.244c-0.178-0.214-0.234-0.034-0.234-0.034
								c-0.008,0.026,0.084,0.131,0.096,0.148c0.049,0.063,0.098,0.127,0.146,0.189c0.035,0.048,0.078,0.081,0.107,0.129
								c0.025,0.037,0.148,0.229,0.029,0.176c-0.08-0.037-0.141-0.109-0.201-0.167c-0.049-0.047-0.098-0.096-0.15-0.143
								c-0.055-0.05-0.129-0.116-0.195-0.141c-0.086-0.027-0.109,0.045-0.063,0.11c0.053,0.078,0.137,0.118,0.205,0.177
								c0.027,0.024,0.221,0.138,0.16,0.186c-0.043,0.038-0.123-0.038-0.164-0.032C16.18,5.013,16.35,5.097,16.35,5.17
								c-1.107,0.28-1.934,1.339-1.934,2.604c0,1.477,1.133,2.673,2.52,2.673c1.393,0,2.521-1.196,2.521-2.673
								C19.457,6.571,18.709,5.556,17.682,5.217z"/>
						</g>
						<g>
							<g>
								<path fill="#9ECA3B" d="M17.102,8.66c0.08-0.038,0.145-0.095,0.213-0.145c0.102-0.077,0.207-0.156,0.273-0.281
									c0,0,0.109-0.2-0.186-0.35c-0.277-0.146-0.621-0.192-0.91-0.067c-0.104,0.046-0.223,0.11-0.293,0.221
									c-0.07,0.109,0.002,0.23,0.078,0.303c0.086,0.076,0.176,0.147,0.271,0.204c0.129,0.081,0.26,0.181,0.406,0.164
									C17.01,8.702,17.055,8.686,17.102,8.66z"/>
							</g>
							<g>
								<path fill="#BBD65B" d="M17.104,8.54c0.08-0.034,0.15-0.08,0.219-0.124c0.104-0.068,0.209-0.137,0.279-0.246
									c0,0,0.111-0.174-0.189-0.303c-0.285-0.128-0.635-0.169-0.928-0.056c-0.107,0.037-0.229,0.094-0.305,0.189
									c-0.07,0.093,0.004,0.198,0.086,0.262c0.084,0.066,0.18,0.128,0.273,0.179c0.131,0.068,0.266,0.156,0.416,0.141
									C17.01,8.577,17.059,8.563,17.104,8.54z"/>
							</g>
						</g>
						<g>
							<g>
								<path fill="#5C803A" d="M16.619,8.084c0,0.002,0,0.002,0,0.002c0.006,0.008,0.016,0.012,0.021,0.019
									c0.01,0.005,0.016,0.014,0.023,0.021c0.006,0.006,0.014,0.014,0.02,0.021c0,0.004,0.004,0.004,0.006,0.01
									c0.002,0.004,0.002,0.007,0.002,0.011c0,0,0.021,0.029,0.029-0.041c0,0,0.01-0.053-0.041-0.072
									c-0.014-0.007-0.029-0.007-0.043,0.002C16.627,8.061,16.617,8.074,16.619,8.084z"/>
							</g>
							<g>
								<path fill="#5C803A" d="M17.197,8.084c0,0.002,0,0.002,0,0.002c-0.002,0.008-0.014,0.012-0.021,0.019
									c-0.008,0.005-0.014,0.014-0.021,0.021c-0.008,0.006-0.014,0.014-0.018,0.021c-0.006,0.004-0.006,0.004-0.01,0.01
									c0,0.004,0,0.007,0,0.011c0,0-0.025,0.029-0.031-0.041c0,0-0.01-0.053,0.043-0.072c0.012-0.007,0.029-0.007,0.043,0.002
									C17.188,8.061,17.203,8.074,17.197,8.084z"/>
							</g>
						</g>
						<g>
							<g>
								<g>
									<path fill="#739B3F" d="M16.17,5.765c0.273,0.202,0.477,0.506,0.547,0.847c0.063,0.295,0.057,0.772-0.256,0.927
										c-0.254,0.125-0.553-0.04-0.689-0.272c-0.145-0.254-0.178-0.555-0.166-0.846c0.008-0.235,0.023-0.554,0.229-0.698
										C15.941,5.648,16.061,5.679,16.17,5.765z"/>
								</g>
								<g>
									<path fill="#FFFFFF" d="M16.713,6.673c0.098,0.416-0.055,0.815-0.346,0.894C16.08,7.643,15.76,7.37,15.66,6.954
										c-0.1-0.415,0.051-0.815,0.344-0.894C16.295,5.981,16.613,6.257,16.713,6.673z"/>
								</g>
								<g>
									<path fill="#60883C" d="M16.652,7.172c0,0.222-0.182,0.397-0.406,0.397c-0.227,0-0.412-0.176-0.412-0.397
										c0-0.22,0.186-0.399,0.412-0.399C16.471,6.772,16.652,6.952,16.652,7.172z"/>
								</g>
								<g>
									<ellipse fill="#0E0E0E" cx="16.267" cy="7.244" rx="0.353" ry="0.325"/>
								</g>
								<g>
									<circle fill="#FFFFFF" cx="16.489" cy="7.022" r="0.085"/>
								</g>
							</g>
							<g>
								<g>
									<path fill="#739B3F" d="M17.707,5.765c-0.273,0.202-0.477,0.506-0.551,0.847c-0.059,0.295-0.055,0.772,0.26,0.927
										c0.254,0.125,0.551-0.04,0.689-0.272c0.148-0.254,0.176-0.555,0.166-0.846c-0.008-0.235-0.023-0.554-0.23-0.698
										C17.936,5.648,17.818,5.679,17.707,5.765z"/>
								</g>
								<g>
									<path fill="#FFFFFF" d="M17.162,6.673c-0.098,0.416,0.055,0.815,0.346,0.894c0.291,0.076,0.609-0.196,0.707-0.612
										c0.104-0.415-0.049-0.815-0.342-0.894C17.582,5.981,17.266,6.257,17.162,6.673z"/>
								</g>
								<g>
									<ellipse fill="#60883C" cx="17.632" cy="7.172" rx="0.409" ry="0.397"/>
								</g>
								<g>
									<path fill="#0E0E0E" d="M17.26,7.244c0,0.181,0.156,0.325,0.354,0.325c0.189,0,0.35-0.145,0.35-0.325
										c0-0.179-0.16-0.324-0.35-0.324C17.416,6.92,17.26,7.065,17.26,7.244z"/>
								</g>
								<g>
									<ellipse fill="#FFFFFF" cx="17.389" cy="7.022" rx="0.084" ry="0.09"/>
								</g>
							</g>
						</g>
						<g>
							<g>
								<g>
									<path fill="#88B940" d="M15.959,10.208c0,0,0.174,0.137,0.32,0.079c0,0,0.014,0.09-0.074,0.144h-0.119
										C16.086,10.431,16.018,10.411,15.959,10.208z"/>
								</g>
								<g>
									<path fill="#88B940" d="M17.877,10.218c0,0-0.17,0.136-0.318,0.082c0,0-0.016,0.091,0.072,0.142h0.121
										C17.752,10.441,17.818,10.422,17.877,10.218z"/>
								</g>
							</g>
							<g>
								<g>
									<path fill="#F9C735" d="M16.08,10.411c0.01-0.008,0.039,0.169,0.033,0.181c-0.01,0.083-0.068,0.103-0.137,0.114
										c-0.053,0.01-0.156,0.019-0.191,0.069c-0.061,0.088,0.047,0.16,0.123,0.123c0,0,0.225,0.237,0.262-0.063
										c0,0,0.162,0.026,0.08-0.137c0,0-0.055-0.033-0.045-0.106c0,0,0-0.13-0.025-0.181C16.158,10.359,16.08,10.411,16.08,10.411
										z"/>
								</g>
								<g>
									<path fill="#F9C735" d="M17.75,10.426c-0.008-0.005-0.037,0.166-0.035,0.182c0.012,0.084,0.072,0.104,0.141,0.117
										c0.055,0.008,0.152,0.016,0.189,0.065c0.061,0.088-0.041,0.159-0.121,0.122c0,0-0.227,0.238-0.266-0.06
										c0,0-0.158,0.024-0.076-0.137c0,0,0.053-0.036,0.045-0.108c0,0,0-0.133,0.023-0.182
										C17.672,10.374,17.75,10.426,17.75,10.426z"/>
								</g>
							</g>
						</g>
						<g>
							<defs>
								<path id="SVGID_142_" d="M17.682,5.217V5.212c-0.004,0-0.01,0-0.016-0.001c-0.021-0.006-0.043-0.013-0.064-0.02
									c-0.041-0.029,0.016-0.075,0.016-0.075l0.1-0.224L17.582,4.99c-0.033,0.019-0.189,0.151-0.211,0.068
									c-0.021-0.072,0.041-0.188,0.072-0.247c0.043-0.086,0.1-0.164,0.111-0.266c0.006-0.063-0.006-0.183-0.088-0.129
									c-0.094,0.062-0.141,0.225-0.168,0.335C17.283,4.818,17.283,4.89,17.24,4.95c-0.016,0.024-0.078,0.111-0.092,0.043
									c-0.002-0.007-0.004-0.015-0.004-0.027c-0.014-0.101-0.02-0.379-0.02-0.379c-0.002-0.07-0.061-0.427-0.15-0.42
									c-0.141,0.007-0.178,0.15-0.133,0.272c0.043,0.11,0.094,0.218,0.141,0.327c0.016,0.041,0.043,0.229-0.047,0.129
									c-0.061-0.067-0.102-0.174-0.158-0.251c-0.061-0.084-0.121-0.166-0.186-0.244c-0.178-0.214-0.234-0.034-0.234-0.034
									c-0.008,0.026,0.084,0.131,0.096,0.148c0.049,0.063,0.098,0.127,0.146,0.189c0.035,0.048,0.078,0.081,0.107,0.129
									c0.025,0.037,0.148,0.229,0.029,0.176c-0.08-0.037-0.141-0.109-0.201-0.167c-0.049-0.047-0.098-0.096-0.15-0.143
									c-0.055-0.05-0.129-0.116-0.195-0.141c-0.086-0.027-0.109,0.045-0.063,0.11c0.053,0.078,0.137,0.118,0.205,0.177
									c0.027,0.024,0.221,0.138,0.16,0.186c-0.043,0.038-0.123-0.038-0.164-0.032C16.18,5.013,16.35,5.097,16.35,5.17
									c-1.107,0.28-1.934,1.339-1.934,2.604c0,1.477,1.133,2.673,2.52,2.673c1.393,0,2.521-1.196,2.521-2.673
									C19.457,6.571,18.709,5.556,17.682,5.217z"/>
							</defs>
							<clipPath id="SVGID_5_">
								<use xlink:href="#SVGID_142_"  overflow="visible"/>
							</clipPath>
							<g clip-path="url(#SVGID_5_)">
								<path fill="#7CA03F" d="M15.756,8.636c0,0,1.09,0.699,2.354,0c-0.004,0.001,0,0.021,0,0.022
									c-0.004,0.016-0.004,0.031-0.004,0.044c0,0.026,0,0.053,0,0.076c0,0.032,0,0.066,0.004,0.096
									c0.004,0.037,0.01,0.072,0.018,0.107c0.006,0.039,0.014,0.076,0.025,0.109c0.01,0.041,0.021,0.075,0.035,0.112
									s0.035,0.072,0.055,0.104c0.027,0.034,0.055,0.061,0.088,0.087c0.031,0.025,0.064,0.063,0.1,0.084
									c0.033,0.021,0.066,0.028,0.1,0.046c0.021,0.01,0.043,0.016,0.063,0.021c0.025,0.004,0.055,0.006,0.07-0.017
									c0.014-0.013,0.01-0.036,0.014-0.055l-0.02-0.095c0,0,0.068,0.012,0.139,0.022c0,0,0.027,0.009,0.033-0.082l0.002-0.041
									c0,0,0.115,0.026,0.182,0.026l-0.227,1.203l-1.135,0.157c0,0-0.746,0.022-0.76,0.022c-0.016,0-0.863-0.07-0.863-0.07
									s-0.318-0.029-0.334-0.037c-0.02-0.011-0.24-0.095-0.266-0.126c-0.02-0.028-0.141-0.162-0.141-0.182
									s-0.105-0.163-0.105-0.163s-0.029-0.144-0.041-0.179c-0.014-0.035-0.205-0.211-0.215-0.229
									c-0.01-0.014-0.109-0.168-0.109-0.168L14.74,9.271l0.203,0.046c0,0,0.049-0.001,0.111-0.01c0,0-0.006,0.061,0.018,0.1
									c0,0,0.07,0.041,0.184-0.021c0,0-0.092,0.097-0.02,0.149c0,0,0.068,0.08,0.313-0.122
									C15.549,9.412,15.828,8.987,15.756,8.636z"/>
							</g>
						</g>
						<g>
							<path fill="#B1D14B" d="M15.523,7.663c0.018,0.049,0.031,0.099,0.045,0.146c0.018,0.045,0.031,0.093,0.049,0.143
								c0.012,0.05,0.033,0.097,0.041,0.146l0.02,0.074c0.008,0.025,0.014,0.049,0.018,0.076c0.012,0.046,0.023,0.096,0.029,0.147
								c0.006,0.024,0.01,0.051,0.012,0.077c0.006,0.011,0.006,0.025,0.006,0.037l0.006,0.038c0.008,0.05,0.008,0.104,0.012,0.154
								c0.002,0.026,0.002,0.053,0.002,0.078c0,0.026,0,0.054-0.002,0.078c-0.004,0.053-0.004,0.104-0.014,0.156l-0.008,0.039
								L15.73,9.093c-0.006,0.025-0.012,0.051-0.021,0.076c-0.002,0.006-0.002,0.014-0.006,0.019l-0.006,0.019l-0.014,0.038
								L15.68,9.25l-0.002,0.004l-0.004,0.01L15.666,9.28c-0.006,0.013-0.014,0.023-0.016,0.035
								c-0.027,0.046-0.055,0.091-0.086,0.131s-0.066,0.077-0.109,0.108c-0.021,0.016-0.043,0.029-0.068,0.039
								c-0.027,0.012-0.055,0.016-0.082,0.016c-0.006-0.003-0.014-0.003-0.018-0.004h-0.014H15.27V9.604l-0.002-0.001h-0.004h-0.002
								c-0.002-0.001-0.018-0.005-0.023-0.011c-0.006-0.005-0.016-0.013-0.023-0.021c-0.012-0.016-0.018-0.036-0.018-0.054
								c-0.006-0.019-0.002-0.035,0-0.049c0.004-0.028,0.01-0.054,0.021-0.081c0.01-0.023,0.018-0.047,0.023-0.07l0.049,0.038
								c-0.01,0.009-0.021,0.02-0.035,0.03c-0.006,0.005-0.014,0.009-0.018,0.014c-0.006,0.004-0.014,0.012-0.02,0.014
								c-0.008,0.004-0.014,0.008-0.018,0.012c-0.01,0.003-0.016,0.006-0.025,0.011c0,0.003-0.004,0.003-0.012,0.004l-0.012,0.004
								l-0.004,0.002c0,0.002-0.002,0.002-0.004,0.002c-0.006,0-0.01,0.001-0.014,0.001c-0.01,0.004-0.018,0.004-0.029,0
								c-0.01-0.001-0.02-0.007-0.029-0.015c-0.008-0.009-0.014-0.019-0.018-0.03c-0.004-0.009-0.006-0.018-0.006-0.026
								c-0.004-0.019,0-0.035,0.002-0.053c0.002-0.017,0.008-0.033,0.008-0.048l0.023,0.018c-0.023,0.011-0.043,0.019-0.064,0.023
								c-0.023,0.009-0.047,0.012-0.07,0.012c-0.004,0-0.012,0-0.016,0c-0.006-0.001-0.014-0.001-0.016-0.003
								c-0.008-0.002-0.014-0.005-0.02-0.006c-0.006-0.004-0.01-0.008-0.014-0.013c-0.004-0.003-0.01-0.01-0.012-0.017
								c-0.002-0.003-0.002-0.004-0.004-0.007c0-0.005,0-0.008-0.002-0.011c0-0.002,0-0.005,0-0.009c0-0.003,0-0.008,0-0.009
								c0-0.007,0.002-0.015,0.002-0.021c0,0.006,0,0.016,0.002,0.021c0,0.001,0,0.006,0,0.009c0,0,0.002,0.005,0.002,0.009
								c0,0.003,0.002,0.006,0.004,0.008c0,0.003,0.002,0.006,0.004,0.007c0,0.006,0.006,0.009,0.008,0.014
								c0.004,0.003,0.01,0.003,0.016,0.006c0,0,0.004,0,0.006,0.003c0.002,0,0.008,0,0.008,0c0.006,0,0.01,0,0.016,0
								c0.004,0,0.012,0,0.016,0c0.023-0.003,0.045-0.009,0.059-0.02c0.021-0.007,0.043-0.018,0.059-0.026
								c0.01-0.008,0.018-0.003,0.023,0.005c0,0.004,0,0.007,0,0.01V9.28c0,0.017,0,0.031,0,0.047c-0.002,0.014,0,0.029,0,0.04
								c0.004,0.009,0.004,0.016,0.006,0.019c0.002,0.004,0.004,0.008,0.006,0.009c0.002,0.002,0.006,0.004,0.008,0.005
								c0.008,0,0.01-0.001,0.018-0.003c0.002,0,0.004,0,0.006-0.002c0.002-0.001,0.004-0.001,0.004-0.001l0.008-0.003l0,0l0,0l0,0
								l0,0l0,0V9.39h0.004l0.002-0.003c0.002-0.001,0.004-0.002,0.008-0.004c0.008,0,0.012-0.007,0.02-0.01
								c0.002-0.006,0.01-0.009,0.014-0.012c0.008-0.004,0.012-0.009,0.016-0.013c0.006-0.004,0.01-0.009,0.016-0.014
								c0.012-0.01,0.021-0.021,0.031-0.031c0.012-0.011,0.031-0.011,0.041,0.003c0.006,0.009,0.008,0.021,0.006,0.033v0.001
								c-0.008,0.023-0.016,0.048-0.023,0.071c-0.004,0.022-0.012,0.046-0.014,0.065c0,0.009,0,0.021,0,0.028
								c0.002,0.009,0.006,0.011,0.008,0.012c0.002,0.002,0.002,0.005,0.004,0.005v0.001h0.002l0,0l0,0l0,0l0.006,0.004h0.002l0,0
								c0.004,0-0.002,0-0.002,0h0.002h0.004h0.006c0.004,0.001,0.006,0.001,0.016,0.001c0.033-0.001,0.068-0.02,0.104-0.044
								c0.035-0.026,0.063-0.061,0.092-0.098c0.029-0.034,0.051-0.075,0.072-0.116c0.008-0.01,0.014-0.021,0.018-0.031L15.6,9.224
								l0.006-0.01V9.211V9.205l0.014-0.032l0.008-0.017c0.002-0.005,0.002-0.01,0.004-0.017c0.008-0.021,0.018-0.047,0.02-0.069
								l0.008-0.036l0.004-0.035c0.012-0.049,0.016-0.097,0.018-0.146c0.004-0.024,0.004-0.049,0.006-0.073c0-0.025,0-0.049,0-0.074
								c-0.002-0.05-0.006-0.1-0.008-0.149l-0.004-0.038c0-0.013-0.002-0.024-0.004-0.037c-0.002-0.025-0.004-0.051-0.01-0.075
								c-0.008-0.051-0.01-0.099-0.02-0.148c-0.002-0.023-0.008-0.051-0.012-0.074l-0.012-0.074
								c-0.012-0.049-0.023-0.099-0.033-0.147l-0.016-0.075l-0.016-0.073C15.543,7.765,15.533,7.715,15.523,7.663z"/>
						</g>
						<g>
							<path fill="#B1D14B" d="M18.334,7.654c-0.01,0.05-0.02,0.1-0.029,0.148l-0.018,0.075l-0.016,0.073
								c-0.012,0.05-0.023,0.1-0.031,0.146l-0.016,0.077c-0.01,0.022-0.01,0.049-0.014,0.073c-0.01,0.05-0.018,0.1-0.023,0.15
								c-0.002,0.022-0.004,0.05-0.01,0.074c0,0.011-0.002,0.023-0.002,0.037l-0.002,0.035c-0.004,0.051-0.008,0.102-0.008,0.15
								c0,0.024,0,0.049,0,0.073s0,0.051,0.004,0.076c0,0.047,0.006,0.098,0.016,0.143l0.008,0.038l0.008,0.034
								c0.004,0.023,0.014,0.047,0.018,0.07c0.004,0.005,0.006,0.011,0.006,0.017l0.01,0.019l0.008,0.033L18.248,9.2
								c0,0,0,0.003,0.002,0.005l0.004,0.009l0.008,0.017c0.002,0.009,0.01,0.02,0.014,0.03c0.025,0.041,0.051,0.08,0.08,0.118
								c0.027,0.037,0.063,0.068,0.096,0.095c0.035,0.025,0.072,0.043,0.111,0.044c0.006,0,0.01-0.001,0.014-0.001h0.008
								l0.004-0.001l0,0c0,0,0,0.001,0,0l0,0l0,0l0.008-0.001l0,0l0,0l0,0l0,0l0,0c0.008-0.002,0.008-0.006,0.008-0.006
								c0.002-0.003,0.006-0.005,0.006-0.014s0-0.018,0-0.027c0-0.021-0.006-0.044-0.014-0.066S18.58,9.356,18.57,9.332V9.328
								c-0.004-0.017,0.002-0.035,0.018-0.041c0.012-0.003,0.023,0,0.029,0.009c0.012,0.008,0.025,0.018,0.033,0.029
								c0.006,0.003,0.012,0.008,0.018,0.012c0.008,0.006,0.012,0.012,0.018,0.016s0.012,0.006,0.02,0.011
								c0.004,0.004,0.008,0.004,0.018,0.01c0.002,0.001,0.006,0.003,0.008,0.003l0.004,0.003l0.002,0.004h0.002l0,0l0,0l0,0
								c-0.002,0,0,0,0,0l0,0h0.004c0.002,0,0.004,0.002,0.004,0.002c0.004,0,0.01,0.001,0.01,0.001
								c0.006,0.001,0.01,0.003,0.016,0.001c0.004,0,0.008,0,0.01-0.002s0.006-0.002,0.006-0.009
								c0.004-0.003,0.006-0.012,0.006-0.018c0.002-0.014,0.002-0.025,0.002-0.042c0-0.015-0.002-0.029-0.002-0.046V9.269
								c0-0.008,0.002-0.018,0.012-0.019c0.006,0,0.008,0.001,0.01,0.004c0.02,0.01,0.041,0.019,0.061,0.027
								c0.021,0.008,0.047,0.015,0.066,0.018c0.006,0.002,0.012,0.002,0.018,0.002s0.01,0,0.016,0c0.004,0,0.006,0,0.01-0.002
								c0,0,0.004-0.002,0.006-0.002c0.004-0.001,0.01-0.004,0.012-0.008c0.006-0.003,0.01-0.006,0.014-0.011
								c0.002-0.003,0.002-0.006,0.004-0.008c0.002-0.003,0.002-0.007,0.002-0.009c0-0.004,0-0.006,0-0.008
								c0.004-0.004,0.004-0.009,0.004-0.009c0-0.008,0-0.011,0-0.019c0,0.005,0,0.011,0,0.018c0,0,0,0.006,0,0.01
								c0,0.002,0,0.007,0,0.01c0,0,0,0.005,0,0.009c0,0.003-0.004,0.006-0.004,0.009c-0.002,0.006-0.006,0.012-0.01,0.016
								C19.004,9.302,19,9.305,18.994,9.31c-0.006,0.002-0.01,0.002-0.016,0.004c-0.008,0.002-0.014,0.003-0.02,0.003
								s-0.012,0.003-0.018,0c-0.023,0-0.049-0.005-0.07-0.01c-0.023-0.003-0.049-0.011-0.07-0.022l0.027-0.021
								c0.002,0.018,0.002,0.033,0.006,0.048c0,0.018,0,0.033,0,0.053c0,0.01,0,0.019-0.004,0.029
								c-0.008,0.009-0.01,0.022-0.021,0.03c-0.008,0.006-0.018,0.014-0.029,0.014c-0.014,0.002-0.021,0.002-0.029,0.001
								s-0.01-0.001-0.014-0.001c-0.002-0.003-0.004-0.003-0.008-0.003l-0.004-0.002l-0.014-0.005
								c-0.002-0.001-0.006-0.004-0.012-0.004c-0.008-0.004-0.014-0.005-0.023-0.01c-0.008-0.004-0.014-0.008-0.021-0.013
								c-0.006-0.005-0.012-0.008-0.018-0.015c-0.008-0.004-0.016-0.008-0.021-0.013c-0.012-0.011-0.025-0.02-0.035-0.031
								l0.049-0.036c0.008,0.021,0.02,0.048,0.027,0.072c0.01,0.023,0.02,0.051,0.021,0.079c0.002,0.016,0.006,0.031,0.002,0.048
								c-0.002,0.018-0.008,0.038-0.023,0.056c-0.006,0.008-0.014,0.016-0.02,0.021c-0.014,0.005-0.025,0.01-0.027,0.01l0,0h-0.004
								h-0.002v0.002h-0.008l-0.008,0.004c-0.008,0-0.016,0-0.021,0c-0.033,0.001-0.061-0.006-0.088-0.014
								c-0.025-0.01-0.053-0.023-0.072-0.039c-0.045-0.03-0.082-0.067-0.115-0.107c-0.033-0.043-0.064-0.085-0.09-0.133
								c-0.004-0.012-0.014-0.021-0.018-0.034l-0.01-0.017l-0.004-0.01V9.239l-0.004-0.005l-0.014-0.036l-0.006-0.02
								c-0.006-0.006-0.006-0.013-0.006-0.021c-0.012-0.022-0.02-0.048-0.021-0.074l-0.01-0.039l-0.008-0.039
								c-0.01-0.052-0.016-0.104-0.018-0.156c0-0.026,0-0.054,0-0.078c0-0.026,0-0.053,0.002-0.078c0-0.052,0.006-0.104,0.01-0.152
								l0.01-0.042c0-0.01,0-0.024,0.004-0.035c0.004-0.027,0.01-0.052,0.012-0.078c0.008-0.051,0.02-0.101,0.031-0.148
								c0.006-0.026,0.014-0.048,0.018-0.075l0.021-0.075c0.012-0.049,0.027-0.095,0.043-0.145c0.02-0.05,0.033-0.096,0.049-0.144
								C18.303,7.751,18.318,7.702,18.334,7.654z"/>
						</g>
					</g>
				</g>
			</g>
		</g>
	</g>
</g>
</svg>
