<?xml version="1.0" encoding="utf-8"?>
<!-- Generator: Adobe Illustrator 16.0.0, SVG Export Plug-In . SVG Version: 6.00 Build 0)  -->
<!DOCTYPE svg PUBLIC "-//W3C//DTD SVG 1.1//EN" "http://www.w3.org/Graphics/SVG/1.1/DTD/svg11.dtd" [
	<!ENTITY ns_flows "http://ns.adobe.com/Flows/1.0/">
	<!ENTITY ns_extend "http://ns.adobe.com/Extensibility/1.0/">
	<!ENTITY ns_ai "http://ns.adobe.com/AdobeIllustrator/10.0/">
	<!ENTITY ns_graphs "http://ns.adobe.com/Graphs/1.0/">
]>
<svg version="1.1" id="Layer_1" xmlns:x="&ns_extend;" xmlns:i="&ns_ai;" xmlns:graph="&ns_graphs;"
	 xmlns="http://www.w3.org/2000/svg" xmlns:xlink="http://www.w3.org/1999/xlink" xmlns:a="http://ns.adobe.com/AdobeSVGViewerExtensions/3.0/"
	 x="0px" y="0px" width="50px" height="50px" viewBox="0 0 50 50" enable-background="new 0 0 50 50" xml:space="preserve">
<g>
	<g>
		<path fill-rule="evenodd" clip-rule="evenodd" fill="#FFFFFF" d="M10.049,32.614c0-1.491-0.075-2.898,0.017-4.293
			c0.132-1.981,1.638-3.376,3.644-3.38c7.414-0.023,14.832-0.026,22.248-0.006c1.898,0.006,3.368,1.285,3.573,3.238
			c0.156,1.443,0.031,2.919,0.031,4.44C29.728,32.614,19.946,32.614,10.049,32.614z"/>
		<path fill-rule="evenodd" clip-rule="evenodd" fill="#FFFFFF" d="M14.455,24.38c-0.698,0-1.275,0-2.141,0
			c0.154-1.824,0.118-3.657,0.508-5.4c0.409-1.822,2.081-2.894,3.967-2.901c5.255-0.021,10.512-0.027,15.767-0.001
			c2.287,0.012,4.068,1.667,4.275,4.028c0.121,1.386,0.024,2.794,0.024,4.255c-0.59,0-1.127,0-1.829,0c0-0.921,0.016-1.854,0-2.788
			c-0.024-1.483-0.625-2.081-2.084-2.087c-1.894-0.007-3.785-0.008-5.68,0.007c-1.221,0.01-1.883,0.634-1.931,1.849
			c-0.04,0.975-0.011,1.951-0.011,3.006c-0.396,0-0.726,0-1.16,0c0-0.961,0.016-1.9-0.002-2.84
			c-0.031-1.381-0.683-2.013-2.068-2.019c-1.896-0.01-3.788-0.013-5.683,0.001c-1.277,0.011-1.911,0.633-1.949,1.925
			C14.43,22.387,14.455,23.361,14.455,24.38z"/>
		<path fill-rule="evenodd" clip-rule="evenodd" fill="#FFFFFF" d="M36.465,33.079c0.735,0,1.284,0,1.973,0
			c0,0.657,0.018,1.291-0.009,1.925c-0.007,0.161-0.137,0.451-0.209,0.45c-0.191-0.005-0.468-0.079-0.554-0.22
			C37.264,34.58,36.912,33.894,36.465,33.079z"/>
		<path fill-rule="evenodd" clip-rule="evenodd" fill="#FFFFFF" d="M11.283,33.103c0.544,0,1.05,0,1.727,0
			c-0.52,0.912-0.673,1.943-1.727,2.718C11.283,34.778,11.283,33.966,11.283,33.103z"/>
	</g>
	<circle fill="none" stroke="#FFFFFF" stroke-width="0.25" stroke-miterlimit="10" cx="25" cy="25" r="24.407"/>
</g>
</svg>
