<?xml version="1.0" encoding="utf-8"?>
<!-- Generator: Adobe Illustrator 23.0.0, SVG Export Plug-In . SVG Version: 6.00 Build 0)  -->
<svg version="1.1" id="Layer_1" xmlns="http://www.w3.org/2000/svg" xmlns:xlink="http://www.w3.org/1999/xlink" x="0px" y="0px"
	 viewBox="0 0 21 16" style="enable-background:new 0 0 21 16;" xml:space="preserve">
<style type="text/css">
	.st0{fill:#FFFFFF;}
	.st1{fill:#042649;}
	.st2{fill:none;stroke:#042649;stroke-miterlimit:10;}
	.st3{fill:#666666;}
</style>
<g>
	<path class="st1" d="M2,10.68c0.11,0.01,0.22,0.02,0.34,0.02c5.44,0,10.88,0,16.33,0c0.11,0,0.22-0.01,0.34-0.02
		c0,0.65,0,1.31,0,1.96c-0.22,0.51-0.5,0.91-1.14,0.9c-4.9-0.01-9.81,0-14.71-0.01c-0.54,0-0.86-0.24-1.05-0.74
		C2.07,12.75,2.03,12.7,2,12.65C2,11.99,2,11.34,2,10.68z"/>
	<path class="st1" d="M18.78,10.21c-5.53,0-11.03,0-16.59,0c0.25-0.65,0.49-1.26,0.73-1.88C3.35,7.22,3.79,6.11,4.2,4.99
		c0.09-0.25,0.22-0.31,0.47-0.31c3.89,0.01,7.78,0.01,11.67,0c0.2,0,0.35,0.01,0.44,0.25c0.65,1.7,1.31,3.39,1.97,5.09
		C18.76,10.07,18.76,10.12,18.78,10.21z"/>
	<path class="st1" d="M16.64,4.11H12.9v0h-0.23c0-0.43,0.01-0.84,0-1.25C12.65,2.24,12.3,1.9,11.7,1.9c-0.79,0-1.59,0-2.38,0
		c-0.59,0-0.94,0.33-0.97,0.92c-0.01,0.21-0.01,0.43,0,0.64c0.01,0.2,0.02,0.4,0.04,0.63H4.35V3.33c0-0.67-0.01-1.33,0-2
		c0.01-0.57,0.4-0.98,0.97-0.98c3.45,0,6.9,0,10.34,0c0.5,0,0.95,0.36,0.96,0.83C16.66,2.15,16.64,3.11,16.64,4.11z"/>
	<path class="st1" d="M4.19,14.19c0.78,0,1.49,0,2.28,0c-0.05,0.44-0.09,0.87-0.15,1.29c-0.01,0.07-0.15,0.16-0.24,0.16
		c-0.55,0.01-1.1,0.01-1.7,0.01C4.31,15.17,4.25,14.7,4.19,14.19z"/>
	<path class="st1" d="M14.54,14.19c0.78,0,1.49,0,2.27,0c-0.05,0.49-0.11,0.95-0.16,1.46c-0.61,0-1.19,0.01-1.78-0.01
		c-0.07,0-0.18-0.13-0.19-0.22C14.61,15.03,14.58,14.63,14.54,14.19z"/>
</g>
</svg>
