<?xml version="1.0" encoding="utf-8"?>
<!-- Generator: Adobe Illustrator 23.0.0, SVG Export Plug-In . SVG Version: 6.00 Build 0)  -->
<svg version="1.1" id="Layer_1" xmlns="http://www.w3.org/2000/svg" xmlns:xlink="http://www.w3.org/1999/xlink" x="0px" y="0px"
	 viewBox="0 0 21 16" style="enable-background:new 0 0 21 16;" xml:space="preserve">
<style type="text/css">
	.st0{fill:#FFFFFF;}
	.st1{fill:#042649;}
	.st2{fill:none;stroke:#042649;stroke-miterlimit:10;}
	.st3{fill:#666666;}
</style>
<g>
	<path class="st1" d="M0.5,9.1c0.02-0.06,0.04-0.12,0.06-0.18c0.22-0.79,0.9-1.31,1.73-1.31c3.53,0,7.07,0,10.6,0
		c1.91,0,3.83,0,5.74,0c0.96,0,1.6,0.5,1.84,1.44c0,0.02,0.02,0.03,0.03,0.05c0,1.56,0,3.13,0,4.69c-0.09,0.01-0.18,0.02-0.27,0.02
		c-6.12,0-12.23,0-18.35,0c-0.46,0-0.92-0.01-1.38-0.02C0.5,12.22,0.5,10.66,0.5,9.1z"/>
	<path class="st1" d="M0.5,14.65c0.67,0,1.35,0,2.03,0c0,0.2,0,0.39,0,0.59c-0.68,0-1.35,0-2.03,0C0.5,15.04,0.5,14.84,0.5,14.65z"
		/>
	<path class="st1" d="M20.5,15.23c-0.67,0-1.34,0-2.03,0c0-0.2,0-0.38,0-0.59c0.68,0,1.35,0,2.03,0
		C20.5,14.84,20.5,15.04,20.5,15.23z"/>
	<path class="st1" d="M18.5,6.75c-0.57,0-1.11,0-1.67,0c0-0.07-0.01-0.13-0.01-0.19c0-0.68,0-1.37,0-2.05c0-0.36-0.14-0.5-0.49-0.5
		c-1.3,0-2.6,0-3.91,0c-0.35,0-0.48,0.14-0.48,0.49c0,0.68,0,1.35,0,2.03c0,0.07,0,0.14,0,0.22c-0.99,0-1.97,0-2.96,0
		c0-0.07,0-0.14,0-0.21c0-0.68,0-1.37,0-2.05c0-0.34-0.13-0.48-0.47-0.48c-1.32,0-2.63,0-3.95,0c-0.32,0-0.46,0.15-0.46,0.47
		c0,0.68,0,1.37,0,2.05c0,0.07,0,0.14,0,0.22c-0.6,0-1.18,0-1.79,0c0-0.05-0.01-0.11-0.01-0.16c0-1.13,0-2.27,0-3.4
		c0-0.14,0.04-0.2,0.17-0.25c1.94-0.78,3.96-1.27,6.04-1.46c3.38-0.3,6.64,0.19,9.79,1.45c0.16,0.06,0.21,0.14,0.21,0.31
		c-0.01,1.1,0,2.2,0,3.3C18.5,6.6,18.5,6.67,18.5,6.75z"/>
	<path class="st1" d="M4.95,6.75c0-0.65,0-1.28,0-1.93c1.07,0,2.13,0,3.21,0c0,0.64,0,1.28,0,1.93C7.1,6.75,6.04,6.75,4.95,6.75z"/>
	<path class="st1" d="M16.04,6.75c-1.08,0-2.14,0-3.21,0c0-0.65,0-1.29,0-1.94c1.07,0,2.13,0,3.21,0
		C16.04,5.46,16.04,6.1,16.04,6.75z"/>
	<path class="st1" d="M18.65,2.08c-0.3-0.11-0.55-0.2-0.8-0.3c-0.04-0.01-0.07-0.08-0.07-0.12c-0.01-0.17-0.01-0.34,0-0.51
		c0.01-0.21,0.15-0.37,0.34-0.39c0.21-0.03,0.4,0.07,0.44,0.29C18.62,1.39,18.62,1.72,18.65,2.08z"/>
	<path class="st1" d="M2.46,2.09c0-0.34-0.01-0.64,0-0.95c0.01-0.21,0.21-0.37,0.41-0.37c0.21,0,0.37,0.16,0.39,0.39
		c0.01,0.17,0.01,0.34,0,0.51c0,0.04-0.03,0.11-0.06,0.12C2.96,1.89,2.72,1.98,2.46,2.09z"/>
</g>
</svg>
